<?xml version="1.0" encoding="UTF-8" standalone="no"?>
<!-- Created with Inkscape (http://www.inkscape.org/) -->

<svg
   width="297mm"
   height="210mm"
   viewBox="0 0 297 210"
   version="1.1"
   id="svg1607"
   inkscape:version="1.2 (dc2aedaf03, 2022-05-15)"
   sodipodi:docname="Camisa-Frente-mdcDF.svg"
   xmlns:inkscape="http://www.inkscape.org/namespaces/inkscape"
   xmlns:sodipodi="http://sodipodi.sourceforge.net/DTD/sodipodi-0.dtd"
   xmlns="http://www.w3.org/2000/svg"
   xmlns:svg="http://www.w3.org/2000/svg">
  <sodipodi:namedview
     id="namedview1609"
     pagecolor="#ffffff"
     bordercolor="#000000"
     borderopacity="0.25"
     inkscape:showpageshadow="2"
     inkscape:pageopacity="0.0"
     inkscape:pagecheckerboard="0"
     inkscape:deskcolor="#d1d1d1"
     inkscape:document-units="mm"
     showgrid="false"
     inkscape:zoom="0.4204826"
     inkscape:cx="655.19952"
     inkscape:cy="92.750567"
     inkscape:window-width="1920"
     inkscape:window-height="1017"
     inkscape:window-x="-8"
     inkscape:window-y="-8"
     inkscape:window-maximized="1"
     inkscape:current-layer="layer1" />
  <defs
     id="defs1604" />
  <g
     inkscape:label="Camada 1"
     inkscape:groupmode="layer"
     id="layer1">
    <path
       id="path435-6-1-2"
       style="font-variation-settings:normal;fill:#b31111;fill-opacity:1;stroke:none;stroke-width:0.196364;stroke-linecap:butt;stroke-linejoin:miter;stroke-miterlimit:4;stroke-dasharray:none;stroke-dashoffset:0;stroke-opacity:1;stop-color:#000000"
       d="m 59.705271,33.770965 c 0.276925,-0.819259 0.327096,-1.311383 0.432848,-1.785491 -0.765354,0.943001 -0.352181,1.144023 -0.432848,1.785491 m 1.41266,-5.687402 c 0.137725,1.228888 -0.959153,1.705841 0.242985,0.89559 0.644354,-1.399093 -0.251839,-0.386398 -0.242985,-0.89559 M 82.098786,17.329839 c 0.597626,-0.210978 1.469225,-0.115682 2.10325,-0.254596 -0.826347,0.06685 -1.648759,0.106674 -2.460842,0.207659 l 0.357592,0.04694 m 19.203224,22.936881 -0.12986,0.313859 c -0.23806,1.629985 -0.75207,3.242901 -1.540049,4.738238 0.870619,-1.577832 1.433809,-3.303586 1.669909,-5.052097 m -24.300507,5.090974 c -0.307421,-0.327609 -0.489414,-0.722067 -0.693049,-1.115102 0.194781,0.690775 0.593691,1.284359 0.965055,1.887899 l -0.272006,-0.772797 m -1.37331,0.05215 -0.123952,0.597376 c 0.580902,0.76047 1.041787,1.58447 1.783532,2.179002 -0.533682,-1.004161 -0.930132,-1.419006 -1.65958,-2.776378 m 21.947388,-6.119789 c 0.0526,1.377758 -0.418095,2.046251 -0.842581,3.229625 l -0.76388,0.367908 c -0.62517,1.170099 0.0605,0.742928 -0.387104,1.673602 -0.975876,0.836327 -2.961569,2.617078 -3.597069,2.779697 -0.463837,-0.01 0.314307,-0.527682 0.416125,-0.730601 -1.306416,0.864774 -1.048182,1.298109 -3.046172,1.823421 l -0.05853,-0.125165 c -4.927587,2.234472 -11.772496,-2.193699 -11.682483,-8.235735 -0.05263,0.383554 -0.149529,0.287784 -0.258725,0.442817 -0.254299,-3.108727 1.489392,-6.231204 4.430303,-7.506081 2.876474,-1.372544 6.248758,-0.809303 8.309215,1.041615 -1.131801,-1.428962 -3.38458,-2.943738 -6.054468,-2.801979 -2.615291,0.03982 -5.061868,1.641836 -5.878378,3.380866 -1.339863,0.813095 -1.495295,3.134329 -2.079148,3.55913 -0.785522,5.564609 1.477587,7.968812 5.305837,10.796868 0.602545,0.391613 0.169696,0.450877 0.251347,0.749091 -1.271984,-0.574145 -2.43674,-1.440815 -3.394417,-2.50187 0.508105,0.716852 1.056543,1.413791 1.765333,1.961386 -1.199187,-0.391613 -2.801219,-2.801031 -3.26899,-2.899172 2.067343,3.567665 8.387423,6.256807 11.696747,4.922666 -1.531202,0.05452 -3.476561,0.03034 -5.197134,-0.582679 -0.722561,-0.358426 -1.705324,-1.100879 -1.529725,-1.239793 4.51638,1.626192 9.181798,1.231733 13.089731,-1.787862 0.994076,-0.746246 2.080132,-2.015908 2.393948,-2.03345 -0.472691,0.685086 0.08067,0.329505 -0.282336,0.934467 0.990634,-1.539904 -0.430389,-0.626771 1.024074,-2.659273 l 0.53713,0.713059 c -0.1997,-1.278196 1.646789,-2.830427 1.45939,-4.852024 0.423499,-0.618238 0.472689,0.665174 0.0231,2.087498 0.623689,-1.577832 0.164279,-1.83148 0.324629,-3.133381 0.17314,0.437602 0.40039,0.902702 0.51696,1.364483 -0.40629,-1.524732 0.41711,-2.56777 0.62075,-3.453878 -0.20069,-0.08581 -0.62714,0.674182 -0.72453,-1.126956 0.0143,-0.782278 0.22577,-0.410103 0.30742,-0.602591 -0.15937,-0.08818 -0.57746,-0.687931 -0.83176,-1.838118 0.18445,-0.270242 0.49286,0.700732 0.74371,0.740557 -0.16133,-0.914555 -0.43924,-1.611968 -0.45055,-2.313648 -0.732899,-1.476373 -0.25922,0.196755 -0.853899,-0.633883 -0.78011,-2.345413 0.647309,-0.544276 0.743719,-1.610072 1.18246,1.65132 1.85682,4.210556 2.16621,5.270662 -0.2361,-1.292419 -0.6178,-2.544539 -1.0836,-3.755886 0.35907,0.145552 -0.57844,-2.659273 0.46679,-0.801717 -1.11656,-3.959752 -4.778549,-7.659693 -8.147389,-9.395877 0.41219,0.363641 0.932592,0.820207 0.74568,0.891797 -1.675321,-0.961491 -1.380689,-1.0364 -1.620723,-1.442711 -1.364948,-0.535268 -1.454469,0.04314 -2.358532,9.48e-4 -2.572497,-1.315176 -3.068306,-1.175314 -5.435692,-1.999314 l 0.10772,0.485012 c -1.70434,-0.54712 -1.985692,0.20766 -3.827757,0.0019 -0.112147,-0.08439 0.590248,-0.305326 1.168199,-0.386398 -1.647776,0.209555 -1.570552,-0.312912 -3.182912,0.05784 0.397433,-0.26882 0.817493,-0.44661 1.241488,-0.67513 -1.343798,0.0787 -3.207998,0.753832 -2.632506,0.139862 -2.191787,0.942527 -6.084472,2.265763 -8.268882,4.23995 l -0.06886,-0.442343 c -1.000962,1.158246 -4.364883,3.459094 -4.632954,4.959172 l -0.267579,0.06021 c -0.520894,0.850076 -0.857827,1.813464 -1.271001,2.688194 -0.681244,1.118895 -0.998503,0.43049 -0.901604,0.60591 -1.339863,2.6185 -2.005367,4.818836 -2.580367,6.623293 0.409731,0.590264 0.0098,3.553441 0.164778,5.92493 -0.672883,11.712371 8.528099,23.084332 18.585432,25.709943 1.474144,0.508244 3.666423,0.488806 5.531115,0.540958 -2.20015,-0.606385 -2.484452,-0.321446 -4.627544,-1.041616 -1.545958,-0.70168 -1.884859,-1.502923 -2.979769,-2.418901 l 0.433341,0.738187 c -2.147519,-0.732497 -1.248867,-0.906495 -2.996,-1.439867 l 0.462852,-0.582679 c -0.696,-0.05073 -1.843541,-1.130748 -2.157356,-1.728598 l -0.76142,0.02892 c -0.914884,-1.088078 -1.40233,-1.872253 -1.366916,-2.479586 l -0.245936,0.42243 C 69.7326,59.528793 66.645603,55.909451 68.247142,56.751941 67.949559,56.489759 67.554093,56.325244 67.125179,55.574256 l 0.326112,-0.359374 c -0.770765,-0.955802 -1.418562,-2.180898 -1.369375,-2.589105 0.411206,0.535268 0.696493,0.635305 0.978828,0.726808 -1.946343,-4.654795 -2.055538,-0.256493 -3.529683,-4.738238 l 0.311848,-0.02418 C 63.603859,48.24312 63.458756,47.866204 63.266434,47.4964 l 0.135757,-1.303798 c -1.401347,-1.561713 -0.392023,-6.640361 -0.189864,-9.425747 0.140184,-1.132644 1.169675,-2.338301 1.952737,-4.229045 l -0.477117,-0.07918 c 0.911933,-1.533266 5.206971,-6.157718 7.196106,-5.919716 0.96358,-1.16678 -0.191338,-0.0043 -0.379726,-0.298214 2.116531,-2.111204 2.782036,-1.491545 4.210436,-1.871305 1.540547,-0.881368 -1.322156,0.343728 -0.591724,-0.336143 2.663002,-0.655692 1.887318,-1.490597 5.361419,-1.823421 0.366445,0.201022 -0.850449,0.310541 -1.155902,0.571301 2.21884,-1.046357 7.021491,-0.808355 10.140951,0.580783 3.619695,1.630458 7.686504,6.450242 7.846854,10.985088 l 0.18249,0.04741 c -0.09248,1.802559 0.28627,3.887213 -0.369893,5.802137 l 0.446623,-0.906495 M 82.8666,17.99122 l -0.33349,0.06638 0.310372,-0.02655 0.02312,-0.03983 m -0.942431,-0.2527 c 0.471706,0.08155 1.019161,0.144129 0.942429,0.2527 0.515975,-0.109045 0.633041,-0.209556 -0.942429,-0.2527 m 9.846811,20.969809 c 0.106736,-1.534215 -0.313323,-1.049202 -0.454491,-0.463678 0.164778,0.0825 0.295124,1.081441 0.454491,0.463678 m -1.751069,4.392139 c 0.526305,-0.700258 0.909966,-1.466891 1.045231,-2.2596 -0.11805,0.565137 -0.436292,1.052994 -0.735843,1.567876 -1.652202,1.002739 -0.155432,-0.59548 -9.83e-4,-1.202813 -1.776647,2.155296 -0.243969,1.292419 -0.308405,1.894537 m -4.744118,1.139756 c -0.883896,0.01185 0.167237,0.439024 1.321172,0.610177 0.318734,-0.239898 0.607955,-0.482642 0.865697,-0.718748 -0.718627,0.169731 -1.450042,0.173524 -2.186869,0.108571" />
    <path
       id="path58423-3"
       style="font-variation-settings:normal;vector-effect:none;fill:#b31111;fill-opacity:1;stroke:none;stroke-width:0.20934;stroke-linecap:butt;stroke-linejoin:miter;stroke-miterlimit:4;stroke-dasharray:none;stroke-dashoffset:0;stroke-opacity:1;-inkscape-stroke:none;stop-color:#000000"
       d="m 154.48335,197.66568 c -2.99369,-0.21269 -5.79838,-0.7757 -5.61104,-1.12622 0.93721,-1.75324 1.59919,-3.69259 1.59919,-4.68473 v -0.3921 l 0.68659,0.5022 c 3.78698,2.77079 11.30951,2.28509 13.26815,-0.85665 l 0.3851,-0.61816 0.086,-1.20018 0.0859,-1.20018 -0.31636,-0.69004 c -0.50811,-1.10853 -2.20577,-2.18341 -6.84927,-4.33609 -3.40106,-1.57676 -6.058,-3.785 -6.93456,-5.76345 l -0.45494,-1.02686 -0.0892,-1.39074 -0.0893,-1.3908 0.28198,-1.10602 c 0.4168,-1.63358 1.12186,-2.73305 2.56434,-3.99848 l 1.27526,-1.11876 1.25127,-0.5479 c 1.67035,-0.7315 3.58737,-1.15529 6.11287,-1.3515 l 2.08615,-0.16229 2.10984,0.16377 c 2.35249,0.18263 3.62653,0.36095 5.09189,0.71368 l 0.98962,0.23846 -0.12304,0.26212 c -0.59436,1.26479 -1.03474,2.64479 -1.13727,3.56445 -0.14448,1.29482 -0.0714,1.26302 -1.1266,0.48877 -1.47636,-1.08299 -3.85357,-1.62606 -6.63872,-1.51665 l -1.66892,0.0655 -0.98056,0.35825 c -2.91534,1.06489 -3.88454,4.24475 -1.94445,6.37918 0.70437,0.77495 1.75336,1.40924 4.88516,2.95408 5.57195,2.74846 6.61577,3.43096 7.63017,4.98876 1.45553,2.23557 1.44027,5.88912 -0.0322,8.51737 -2.18765,3.89574 -8.27712,5.85775 -16.39086,5.28117 z m -28.76759,-0.47104 c -3.22043,-0.38887 -5.77102,-2.42936 -6.79072,-5.4324 l -0.43185,-1.27227 -0.011,-2.54973 -0.011,-2.54978 0.32765,-1.00445 c 1.15887,-3.55296 3.98945,-5.65125 8.9043,-6.60071 l 1.3379,-0.25835 4.15247,-0.011 4.15262,-0.011 -0.11967,-2.00893 c -0.24063,-4.03656 -1.26512,-5.36913 -4.45487,-5.79247 l -1.27613,-0.16921 -1.69078,0.15735 c -2.6399,0.24545 -5.58102,1.17934 -7.50733,2.38324 l -0.62423,0.38993 -0.68928,-1.65227 c -0.3792,-0.90874 -0.86686,-1.93945 -1.08351,-2.29039 l -0.39425,-0.6382 1.46106,-0.55652 c 3.3012,-1.25753 6.85409,-1.8395 11.22613,-1.83885 l 2.96692,3.7e-4 1.48354,0.26104 c 3.69676,0.65039 5.94327,2.25282 6.91492,4.93246 l 0.28842,0.79574 0.116,11.667 0.1166,11.66711 0.29972,0.7415 c 0.16493,0.40766 0.43075,0.90794 0.59055,1.11134 l 0.29111,0.37006 -3.79148,0.005 c -2.08528,0.001 -3.83171,-0.0483 -3.88085,-0.11709 -0.0483,-0.0666 -0.13855,-1.39892 -0.19765,-2.96132 -0.0595,-1.56241 -0.14019,-2.86737 -0.17993,-2.89993 -0.0376,-0.0322 -0.47053,0.58965 -0.95845,1.38253 l -0.88746,1.44162 -1.21727,1.02229 c -2.26478,1.90213 -5.1465,2.68104 -8.44479,2.28272 z m 6.99228,-5.23062 c 2.03556,-0.84713 3.58347,-2.78358 4.14636,-5.18718 0.27016,-1.15301 0.63654,-5.89399 0.46675,-6.03532 -0.15948,-0.13261 -5.56744,-0.0581 -6.50202,0.0898 -2.34853,0.37115 -4.37538,1.59974 -5.22733,3.16849 l -0.4195,0.77263 -0.011,1.93167 -0.011,1.93157 0.3196,0.85965 c 0.54565,1.46771 1.3654,2.24749 2.84351,2.70507 l 0.73112,0.22612 1.3971,-0.0538 1.39708,-0.0538 0.86018,-0.35772 z m 98.52126,5.23163 c -0.61473,-0.0736 -1.70771,-0.37758 -2.44247,-0.67906 l -1.3299,-0.54571 -0.87731,-0.80884 c -0.98239,-0.90574 -1.75826,-2.16951 -2.25158,-3.66761 l -0.33086,-1.00446 0.011,-2.70431 0.011,-2.70426 0.49952,-1.24836 c 1.42791,-3.56853 4.51997,-5.51374 9.83722,-6.18856 l 1.88516,-0.23901 3.24518,0.0538 3.24513,0.0538 0.0581,-0.84993 c 0.16597,-2.42941 -0.45708,-4.67986 -1.5848,-5.72509 l -0.80197,-0.74335 -0.96821,-0.27609 -0.96808,-0.27607 -1.9471,0.0268 -1.94708,0.0269 -1.48351,0.31903 c -1.64071,0.3529 -3.28546,0.97621 -4.76049,1.80343 -1.30958,0.73438 -1.23718,0.76246 -1.7433,-0.67709 -0.24653,-0.7026 -0.6904,-1.72086 -0.98532,-2.26303 l -0.53659,-0.9856 1.41658,-0.54683 c 3.77135,-1.45579 9.04086,-2.17182 13.37728,-1.81763 5.64105,0.46083 7.99628,1.88563 9.21773,5.57688 l 0.33247,1.00445 -0.0538,8.42194 c -0.0322,4.63201 0.0268,9.74671 0.12468,11.36607 l 0.17563,2.94423 0.35664,0.84177 c 0.19604,0.46298 0.41842,0.95902 0.4936,1.10226 l 0.13689,0.26049 -3.78836,0.005 -3.78831,0.005 -0.1209,-1.96611 c -0.0661,-1.08142 -0.1209,-2.43553 -0.1209,-3.00922 -0.001,-1.35069 -0.11489,-1.31228 -1.09344,0.369 l -0.81449,1.39922 -1.2253,1.02894 c -2.32163,1.94952 -5.1355,2.72307 -8.45735,2.32484 z m 6.49851,-5.09891 c 3.2555,-1.01502 4.81726,-3.79863 5.04147,-8.98559 l 0.10521,-2.43386 -2.94832,0.001 -2.94831,0.001 -1.20281,0.23631 c -2.17001,0.42647 -3.90278,1.56511 -4.80588,3.15883 l -0.48178,0.84992 0.0165,1.93162 0.0165,1.93162 0.42593,0.91472 c 0.84514,1.81371 2.31555,2.6805 4.58785,2.70456 l 1.15205,0.011 1.04206,-0.32496 z m -175.878344,4.47747 c 0.60909,-0.7128 0.915293,-2.14253 1.120957,-5.23433 l 0.200352,-3.01335 -0.102583,-13.90774 c -0.108023,-14.66189 -0.169181,-15.75169 -0.967228,-17.21017 -0.249749,-0.45655 -0.45439,-0.8466 -0.45439,-0.86701 0,-0.0214 0.813616,-0.001 1.808074,0.0429 0.99431,0.0429 4.35309,-0.011 7.463788,-0.11441 l 5.655843,-0.19388 2.29026,0.17132 2.290395,0.17135 1.758256,0.48608 c 4.135924,1.14288 6.502396,3.31437 7.218854,6.62386 l 0.283585,1.3092 -0.117099,1.43408 c -0.219683,2.68407 -0.989313,4.29111 -2.840513,5.93119 l -1.170155,1.03668 -1.704104,0.70266 c -0.937206,0.38672 -2.313129,0.81652 -3.057342,0.95556 -1.65179,0.30885 -1.677684,0.28628 0.93881,0.82523 6.647422,1.3699 9.547979,4.69957 9.161811,10.51705 -0.368469,5.54859 -3.999031,9.01871 -10.85592,10.37579 l -1.571965,0.31152 -8.848344,0.0268 -8.848463,0.0268 z m 17.022839,-4.28002 c 2.186267,-0.58525 3.715691,-1.75702 4.512342,-3.45719 l 0.384025,-0.81952 0.08758,-1.712 c 0.237419,-4.6341 -1.475174,-6.99526 -5.890567,-8.12137 l -1.390694,-0.35449 -3.059767,-0.005 -3.059672,-0.005 0.02144,6.5798 0.02144,6.57984 0.326027,0.57257 c 0.564445,0.99125 1.36518,1.18766 4.542734,1.11423 l 2.317917,-0.0538 1.184816,-0.31744 z m -1.184387,-19.54754 1.483944,-0.40337 1.082808,-0.76297 c 1.253838,-0.88339 1.799168,-1.50145 2.271825,-2.57437 l 0.338386,-0.76847 -0.01102,-1.85431 -0.01102,-1.85439 -0.410887,-0.87264 c -1.375652,-2.92175 -5.054977,-4.00032 -11.199934,-3.28316 l -0.880874,0.10252 v 6.41045 6.4105 l 2.920664,-0.0735 2.920559,-0.0736 1.483932,-0.40335 z m 20.494723,24.15628 c 0,-0.0429 0.0863,-0.35557 0.18693,-0.69535 0.35878,-1.21569 0.72981,-9.31413 0.73003,-15.91665 0,-9.6625 -0.30293,-12.03872 -1.700443,-13.31379 l -0.365235,-0.33301 1.453098,-0.10203 c 2.186869,-0.15355 4.434789,-0.49414 6.081739,-0.92121 0.81184,-0.21054 1.48974,-0.36846 1.50637,-0.35127 0.0322,0.0322 -0.19926,4.19524 -0.37113,6.71532 -0.11979,1.75023 0.0484,1.79782 0.9023,0.25619 0.82162,-1.48194 2.00202,-2.86345 3.6016,-4.21499 l 1.25272,-1.0586 1.56477,-0.6384 c 1.60091,-0.65335 3.36109,-1.10512 4.30485,-1.10512 h 0.52959 l -0.10044,0.27071 c -0.32119,0.86416 -0.68187,2.73272 -0.78767,4.0781 l -0.12188,1.54832 -1.04995,-0.10142 c -2.25787,-0.21807 -5.0494,0.58646 -6.6443,1.9156 -2.80658,2.33882 -3.49371,5.82113 -3.32656,16.8594 l 0.0833,5.48581 0.30346,0.84992 c 0.16704,0.46728 0.30402,0.84993 0.30562,0.84993 h -4.1701 c -2.29475,0 -4.170299,-0.0322 -4.167829,-0.0774 z m 79.583539,-0.70646 c 0.17458,-0.43131 0.41897,-1.71753 0.54245,-2.85878 l 0.22504,-2.07508 -0.004,-9.73539 c -0.011,-11.68013 -0.14134,-13.05674 -1.40444,-14.13332 l -0.55124,-0.46998 h 0.29058 c 1.89118,0 6.64861,-0.8068 8.2614,-1.40106 l 0.81244,-0.29917 -0.11502,0.57975 c -0.0628,0.31905 -0.20571,1.48421 -0.31689,2.58959 l -0.20302,2.00989 0.0821,11.66608 0.0822,11.6661 0.28199,1.17165 c 0.1552,0.64438 0.4082,1.37454 0.56192,1.62257 l 0.27984,0.45063 h -4.57223 -4.57223 z m 15.46875,0.55194 c 0.82373,-1.63073 0.96935,-3.83328 1.1135,-16.84382 l 0.11551,-10.43077 -0.20947,-4.40413 c -0.27393,-5.76042 -0.66855,-7.41248 -1.98613,-8.31751 l -0.62418,-0.42862 1.80519,-0.18906 c 2.32515,-0.24385 4.3563,-0.69734 6.43094,-1.43639 0.91235,-0.32497 1.68697,-0.56742 1.72142,-0.53879 0.0322,0.0269 -0.0214,0.77424 -0.11931,1.65683 -0.29165,2.58131 -0.45064,24.93805 -0.22506,31.66073 0.19122,5.68731 0.42218,7.91627 0.93302,9.01145 0.11171,0.23901 0.20302,0.44797 0.20302,0.46353 0,0.0165 -2.08716,0.0269 -4.63796,0.0269 h -4.63802 z m 16.22302,-0.4646 c 0.17456,-0.38298 0.42969,-1.5304 0.56718,-2.54978 l 0.24977,-1.85343 v -10.43078 -10.43079 l -0.25298,-1.15892 c -0.29594,-1.35897 -0.63519,-2.10377 -1.17467,-2.5823 l -0.38994,-0.34589 0.25996,-0.0693 c 0.14283,-0.0376 0.88549,-0.1133 1.65039,-0.16759 1.98474,-0.14019 4.87102,-0.64958 6.16729,-1.08856 l 1.11102,-0.37598 -0.12254,0.63874 c -0.48071,2.50439 -0.69916,22.645 -0.29327,26.99805 0.17189,1.84653 0.62112,3.64725 0.95149,3.81741 0.47966,0.24707 -0.25458,0.29595 -4.44095,0.29595 h -4.60047 z m -27.32761,-35.413 c -0.2503,-0.36792 -1.09597,-1.70077 -1.8799,-2.96185 l -1.42528,-2.29299 0.16758,-0.1794 c 0.0919,-0.0987 0.77361,-1.36168 1.51472,-2.80652 0.74105,-1.44483 1.41152,-2.6853 1.4899,-2.75646 0.12041,-0.10902 5.00647,3.15462 5.14517,3.43665 0.0429,0.0854 -4.32663,8.03716 -4.49049,8.17369 -0.0376,0.0322 -0.27179,-0.24546 -0.52153,-0.613 z m 27.90393,-2.6465 -2.81914,-2.35295 2.83021,-2.35475 2.83009,-2.35476 2.83147,2.3632 2.83137,2.36319 -2.79867,2.31135 c -1.53937,1.27124 -2.81845,2.32629 -2.84251,2.34451 -0.0269,0.0214 -1.31234,-1.02568 -2.86282,-2.31979 z"
       sodipodi:nodetypes="ssscsscccssscccsscsscsscsssscssssssscscccsscccsscsscsscsscsscccssccsssscsccssssscccssccccscscsscccsscccsscccccsssscssscsccsscccscscscccscccsscccsscccsscssscscccsscsscssssscccscscsscccccsscccccsscccssccccccccscscsssssscsscsscssscscsccscsscsscsscccssccccsscsscsssssssscssscccsscssscsssscssscssssssscccccsss" />
    <path
       id="path58445-1"
       style="font-size:10.2426px;font-family:'Berlin Sans FB Demi';-inkscape-font-specification:'Berlin Sans FB Demi, Normal';white-space:pre;fill:#172b4d;stroke-width:0.298049;stop-color:#000000"
       d="m 248.94815,136.49856 q 0,0.38196 -0.41378,0.38196 -1.71884,0 -2.70558,-0.0955 0.0477,1.19363 0.0955,3.32625 0.0159,0.90716 0.1432,3.15118 0.11138,2.02122 0.11138,3.15119 0,0.33422 -0.44564,0.38196 -0.5411,0.0637 -2.70554,0.0637 -1.7984,0 -2.33953,-0.0955 -0.5411,-0.0955 -0.5411,-0.65252 v -8.76923 q 0,-0.46154 -0.6366,-0.46154 -0.11138,0 -0.36605,0.0159 -0.23867,0.0159 -0.35014,0.0159 -0.4456,0 -0.46155,-0.25465 -0.1432,-1.38461 -0.1432,-4.02651 0,-0.58886 0.60478,-0.71618 0.5411,-0.0477 1.09815,-0.0796 -0.0796,-1.2732 -0.0796,-1.98938 0,-2.73739 1.06633,-3.97877 2.11671,-2.46684 6.84346,-2.46684 0.31832,0 0.38196,0.19097 0.12729,0.71618 0.36605,2.1167 0.0159,0.12732 0.20685,0.89125 0.1432,0.58885 0.1432,0.90716 0,0.38196 -1.12997,0.49336 -1.30503,0.14324 -1.60743,0.47746 -0.52519,0.57294 -0.52519,2.24402 0,0.5252 0.0795,0.98674 0.44561,0 1.38461,-0.0318 0.93897,-0.0318 1.41643,-0.0318 0.47746,0 0.47746,0.35014 0,0.748 0.0159,2.25993 0.0159,1.49602 0.0159,2.24403 z m -12.44558,9.80368 q 0,0.42971 -0.44563,0.49337 -0.44564,0.0637 -2.32359,0.0637 -2.0053,0 -2.48275,-0.0955 -0.47746,-0.0955 -0.47746,-0.65252 0,-0.74801 0.0477,-2.25994 0.0477,-1.51194 0.0477,-2.27586 0,-0.58886 -0.0318,-1.75066 -0.0318,-1.17771 -0.0318,-1.76657 0,-2.18037 -1.89389,-2.18037 -0.62069,0 -1.44829,0.54112 -0.89124,0.60477 -0.89124,1.19363 v 8.59414 q 0,0.52519 -0.49337,0.58885 -0.55701,0.0637 -2.27585,0.0637 -1.86207,0 -2.41908,-0.0955 -0.49337,-0.0796 -0.49337,-0.5252 0,-1.24137 0.0159,-3.74004 0.0159,-2.49867 0.0159,-3.75596 0,-3.96285 -0.62069,-6.22279 -0.0318,-0.14323 -0.0318,-0.23873 0,-0.25464 0.23867,-0.35013 1.00265,-0.11141 2.67372,-0.35013 2.53052,-0.49337 2.84881,-0.49337 0.17502,0 0.27048,1.08223 0.0955,1.06631 0.27049,1.06631 -0.17502,0 1.70293,-1.09815 1.89389,-1.11405 3.31032,-1.11405 2.02121,0 3.374,0.9549 1.51193,1.09814 1.51193,3.0557 v 5.07691 q 0,1.03448 0.0159,3.10344 0.0159,2.05304 0.0159,3.08752 z m -17.74532,-7.36868 q 0,3.62864 -2.22812,5.88858 -2.21217,2.25994 -5.8249,2.25994 -3.50132,0 -5.76126,-2.22811 -2.25994,-2.22811 -2.25994,-5.72943 0,-3.69229 2.16444,-5.98407 2.16445,-2.30768 5.85676,-2.30768 3.59682,0 5.8249,2.25994 2.22812,2.24402 2.22812,5.84083 z m -5.22015,0 q 0,-1.25729 -0.77984,-2.21219 -0.77983,-0.97082 -2.02121,-0.97082 -1.25729,0 -2.06894,0.98673 -0.76392,0.92308 -0.76392,2.19628 0,1.28912 0.76392,2.2122 0.81165,0.98673 2.06894,0.98673 1.24138,0 2.05307,-0.98673 0.74798,-0.92308 0.74798,-2.2122 z m -11.69757,4.23341 q 0,0.25464 -0.3342,0.66843 -2.92839,3.48541 -7.78247,3.48541 -4.96551,0 -8.05305,-3.38991 -3.00795,-3.27851 -3.00795,-8.27584 0,-4.83819 2.94431,-8.21218 3.07159,-3.53315 7.81429,-3.53315 5.15648,0 8.08487,3.1671 0.31828,0.35013 0.31828,0.62069 0,0.30237 -1.11405,2.24403 -1.09812,1.94163 -1.38461,2.18036 -0.12729,0.12732 -0.31829,0.12732 -0.0795,0 -0.79577,-0.6366 -0.85939,-0.76393 -1.68699,-1.19363 -1.25729,-0.63661 -2.61007,-0.63661 -2.33953,0 -3.74005,1.75066 -1.28911,1.62334 -1.28911,4.0106 0,2.41909 1.28911,4.05835 1.40052,1.78248 3.74005,1.78248 1.38461,0 2.62598,-0.60477 0.81169,-0.39788 1.65517,-1.11405 0.70027,-0.60478 0.77983,-0.60478 0.15911,0 0.31831,0.17505 0.25458,0.28647 1.38461,1.98939 1.1618,1.76657 1.1618,1.94164 z m -20.64183,-4.18566 q 0,3.34216 -1.90984,5.58619 -2.03712,2.38726 -5.31562,2.38726 -2.38726,0 -3.85146,-1.3687 -0.11137,-0.0955 -0.19093,-0.0955 -0.15911,0 -0.30231,0.58885 -0.12729,0.58886 -0.31828,0.65252 -0.27049,0.0796 -4.53583,0.0796 -1.00265,0 -1.00265,-0.36605 0,-0.0477 0.0318,-0.23873 0.31828,-2.53049 0.31828,-9.64453 0,-6.79574 -0.47746,-11.8249 l -0.0159,-0.17505 q 0,-0.25464 0.49337,-0.28647 0.35014,-0.0159 2.76922,-0.23873 1.70293,-0.15914 2.76922,-0.15914 0.30231,0 0.30231,0.5252 0,0.62069 -0.0795,1.63925 -0.0955,1.25729 -0.11138,1.65517 -0.0796,1.57559 -0.0796,4.29707 0,0.49337 0.25458,0.49337 0.12729,0 0.23867,-0.12732 1.43234,-1.52785 3.75595,-1.52785 3.48538,0 5.44295,2.37135 1.81433,2.19628 1.81433,5.77717 z m -5.76126,-0.17506 q 0,-1.32095 -0.81169,-2.22811 -0.81165,-0.92307 -2.11671,-0.92307 -1.33684,0 -2.11671,0.92307 -0.76392,0.90716 -0.76392,2.25995 0,1.40052 0.74801,2.25994 0.79578,0.90715 2.16444,0.90715 1.35279,0 2.14857,-0.93899 0.74801,-0.87533 0.74801,-2.25994 z m -13.24136,-0.68436 q 0,1.60743 -1.03447,1.83024 -0.17502,0.0318 -3.29444,0.35013 -1.87798,0.2069 -5.60209,0.49337 0.22276,1.03447 1.35279,1.57559 0.92306,0.44562 2.10077,0.44562 1.41646,0 2.8488,-0.76392 0.60478,-0.38196 1.20956,-0.76393 0.3342,0.15914 1.11406,1.62334 0.79574,1.46419 0.79574,1.86206 0,0.11141 -0.23866,0.36605 -1.94163,2.08488 -6.03181,2.08488 -3.78778,0 -6.1114,-2.2122 -2.38726,-2.24403 -2.38726,-5.99998 0,-3.66047 2.13262,-5.99999 2.1963,-2.41909 5.82493,-2.41909 3.05569,0 5.18831,2.22811 2.13262,2.22811 2.13262,5.29972 z m -5.57026,-0.97082 q 0,-0.98673 -0.70028,-1.73474 -0.70027,-0.74801 -1.67107,-0.74801 -1.00265,0 -1.65519,0.8435 -0.60475,0.77984 -0.60475,1.83023 0,0.42971 0.44561,0.42971 1.17773,0 3.66046,-0.36605 0.52522,-0.0796 0.52522,-0.25464 z m -11.36337,-1.67108 q 0,4.67903 -3.00795,8.11669 -2.65781,3.07161 -7.46419,3.23076 -0.92306,0.0318 -5.07689,0.0318 -0.77983,0 -2.35544,-0.0477 -1.55969,-0.0477 -2.33952,-0.0477 -0.46152,0 -0.46152,-0.36605 0,-1.75066 0.12729,-5.25198 0.1432,-3.51723 0.1432,-5.26789 0,-1.83023 -0.1432,-5.47478 -0.12729,-3.66047 -0.12729,-5.47479 0,-0.33422 0.46152,-0.39788 1.12996,-0.12732 3.70822,-0.12732 4.90184,0 6.35013,0.14324 3.77187,0.38196 5.90449,1.90981 2.0053,1.43235 3.16709,4.0106 1.11406,2.435 1.11406,5.01324 z m -6.09549,0 q 0,-2.68965 -1.60743,-4.39256 -1.62334,-1.76657 -4.29706,-1.76657 -2.45093,0 -2.45093,0.65251 0,0.93899 -0.0318,2.83289 -0.0318,1.87798 -0.0318,2.81697 0,0.92307 0.0318,2.78513 0.0318,1.84615 0.0318,2.78514 0,0.68435 2.54643,0.68435 2.75331,0 4.32888,-1.83023 1.48011,-1.73474 1.48011,-4.56763 z m -17.44292,-7.84613 q 0,2.76922 -3.11935,2.76922 -1.33685,0 -2.21218,-0.70026 -0.95492,-0.76392 -0.95492,-2.06896 0,-1.24138 0.98674,-2.03713 0.90715,-0.73209 2.18036,-0.73209 1.24137,0 2.14853,0.748 0.97082,0.79576 0.97082,2.02122 z m -0.41378,11.8249 q 0,1.1618 0.0477,3.46949 0.0477,2.29177 0.0477,3.43765 0,0.33422 -0.39791,0.39788 -0.5411,0.0955 -2.43499,0.0955 -1.9098,0 -2.45093,-0.0955 -0.35011,-0.0637 -0.4297,-0.20691 -0.0318,-0.0636 -0.0318,-0.47745 0,-1.09814 0.0477,-3.29442 0.0477,-2.21219 0.0477,-3.32625 0,-4.51988 -0.35011,-7.19361 -0.0318,-0.25464 -0.0318,-0.33422 0,-0.3183 0.42972,-0.3183 0.44561,0 1.35279,0.0955 0.92306,0.0955 1.38461,0.0955 0.46152,0 1.38461,-0.0796 0.92306,-0.0796 1.38461,-0.0796 0.38196,0 0.38196,0.3183 0,0.0636 -0.0318,0.30237 -0.35014,3.10344 -0.35014,7.19362 z m -8.54639,6.84348 q 0,0.42971 -0.44563,0.49337 -0.44564,0.0637 -2.32362,0.0637 -2.0053,0 -2.48273,-0.0955 -0.47745,-0.0955 -0.47745,-0.65252 0,-0.74801 0.0477,-2.25994 0.0477,-1.51194 0.0477,-2.27586 0,-0.58886 -0.0318,-1.75066 -0.0318,-1.17771 -0.0318,-1.76657 0,-2.18037 -1.89389,-2.18037 -0.62069,0 -1.44829,0.54112 -0.89124,0.60477 -0.89124,1.19363 v 8.59414 q 0,0.52519 -0.49337,0.58885 -0.55701,0.0637 -2.27585,0.0637 -1.862069,0 -2.419079,-0.0955 -0.493371,-0.0796 -0.493371,-0.5252 0,-1.24137 0.01591,-3.74004 0.01591,-2.49867 0.01591,-3.75596 0,-3.96285 -0.620689,-6.22279 -0.03182,-0.14323 -0.03182,-0.23873 0,-0.25464 0.238665,-0.35013 1.002655,-0.11141 2.673725,-0.35013 2.530489,-0.49337 2.848799,-0.49337 0.17503,0 0.27049,1.08223 0.0955,1.06631 0.27049,1.06631 -0.17502,0 1.70293,-1.09815 1.89389,-1.11405 3.31032,-1.11405 2.02121,0 3.374,0.9549 1.51193,1.09814 1.51193,3.0557 v 5.07691 q 0,1.03448 0.0159,3.10344 0.0159,2.05304 0.0159,3.08752 z M 94.285452,127.63386 q 0,2.76922 -3.119358,2.76922 -1.336845,0 -2.212175,-0.70026 -0.954917,-0.76392 -0.954917,-2.06896 0,-1.24138 0.986739,-2.03713 0.907152,-0.73209 2.180353,-0.73209 1.241379,0 2.14853,0.748 0.970828,0.79576 0.970828,2.02122 z m -0.413782,11.8249 q 0,1.1618 0.04773,3.46949 0.04773,2.29177 0.04773,3.43765 0,0.33422 -0.397903,0.39788 -0.541103,0.0955 -2.434993,0.0955 -1.909802,0 -2.450936,-0.0955 -0.350106,-0.0637 -0.429693,-0.20691 -0.03182,-0.0636 -0.03182,-0.47745 0,-1.09814 0.04773,-3.29442 0.04773,-2.21219 0.04773,-3.32625 0,-4.51988 -0.350138,-7.19361 -0.03182,-0.25464 -0.03182,-0.33422 0,-0.3183 0.429725,-0.3183 0.445604,0 1.352788,0.0955 0.923063,0.0955 1.38461,0.0955 0.461515,0 1.38461,-0.0796 0.923063,-0.0796 1.38461,-0.0796 0.38196,0 0.38196,0.3183 0,0.0636 -0.03182,0.30237 -0.350138,3.10344 -0.350138,7.19362 z m -8.737386,6.81165 q 0,0.49337 -0.461547,0.49337 h -5.633938 q -0.461516,0 -0.461516,-0.55703 0,-1.60742 0.111378,-4.82227 0.127288,-3.21484 0.127288,-4.82226 0,-0.46154 -0.143199,-0.49337 -0.175022,0.0955 -2.13262,4.91776 -1.145913,2.83288 -2.291794,5.64985 -0.15911,0.36605 -0.397871,0.42971 -0.07955,0.0159 -0.636601,0.0159 -0.827596,0 -0.986738,-0.3183 -0.859419,-1.75066 -2.25994,-5.09283 -1.496019,-3.53314 -2.244029,-5.10874 -0.03182,-0.0796 -0.143199,-0.17505 -0.111377,0.14323 -0.111377,0.46154 0,1.55967 0.07955,4.67903 0.07955,3.11935 0.07955,4.67903 0,0.55703 -0.445604,0.55703 h -5.315654 q -0.318284,0 -0.397871,-0.0955 -0.06365,-0.11141 -0.06365,-0.36605 0,-1.73474 0.159111,-5.20422 0.175021,-3.48541 0.175021,-5.22015 0,-1.84615 -0.15911,-6.92306 -0.01591,-1.32095 -0.143199,-3.93102 l -0.01591,-0.27055 q -0.01591,-0.31831 0.668423,-0.31831 0.87533,0 2.625989,-0.0477 1.750659,-0.0636 2.625989,-0.0636 0.175021,0 0.493369,0.66843 l 4.6472,10.20156 q 0.493369,1.03448 0.827596,1.03448 0.175022,0 0.74801,-1.19363 1.607428,-3.34217 4.758608,-10.07424 0.270488,-0.62069 0.588836,-0.62069 0.461547,0 1.38461,0.0477 0.939006,0.0477 1.416464,0.0477 0.397871,0 1.209525,-0.0796 0.827597,-0.0796 1.225468,-0.0796 0.477458,0 0.477458,0.38196 0,1.87798 -0.143199,5.61802 -0.127288,3.72413 -0.127288,5.60211 0,1.73475 0.143199,5.20423 0.143199,3.46949 0.143199,5.18832 z" />
    <path
       id="path58449-5"
       style="font-variation-settings:normal;vector-effect:none;fill:#172b4d;fill-opacity:1;stroke:none;stroke-width:0.39021;stroke-linecap:butt;stroke-linejoin:miter;stroke-miterlimit:4;stroke-dasharray:none;stroke-dashoffset:0;stroke-opacity:1;-inkscape-stroke:none;stop-color:#000000"
       class="UnoptimicedTransforms"
       d="m 401.85352,54.279297 c -1.05777,0.540551 -1.77345,1.548288 -2.81591,2.097435 -1.62619,0.577099 -3.42242,-0.177783 -5.04542,0.468971 0.77486,0.327684 0.0715,0.291438 -0.35547,0.416016 -0.51492,0.402574 -0.98014,-0.594119 -1.50391,-0.15625 -0.54889,0.608344 -1.4498,0.662813 -2.20312,0.847656 0.23625,0.217043 1.1874,0.501897 0.41992,0.578125 -0.81058,0.139883 -1.65173,0.04785 -2.4375,0.34375 0.75842,0.175625 0.62418,0.326462 -0.0377,0.425903 -0.46551,0.09118 -1.11766,0.416424 -1.43694,-0.04504 -0.3882,-0.06034 -0.52567,0.628955 -0.96484,0.41211 0.085,0.516189 -0.54819,0.897739 -0.27343,1.430001 -0.0101,0.448472 0.19302,0.913961 -0.32814,0.847342 -0.2726,0.682865 -0.13465,1.469746 -0.30652,2.181565 -0.0936,0.620943 -0.12107,1.264275 0.22513,1.810972 0.10659,0.453448 0.48788,0.992311 0.19077,1.403948 0.004,0.468867 0.49794,0.830967 0.25752,1.326956 -0.24925,0.716732 0.25969,1.34456 0.207,2.04837 0.10257,2.669643 -0.54636,5.308396 -0.41024,7.981682 -0.0485,1.669425 -0.66242,3.256428 -0.83636,4.914621 -0.0738,0.452203 0.50922,-0.358685 0.21763,0.470558 -0.30018,1.98319 -0.31085,4.224007 -1.72071,5.806641 -0.25802,0.414643 -0.26935,0.920538 -0.20703,1.390625 0.37497,-0.360466 0.53023,-0.388294 0.45703,0.140625 0.10531,0.781912 0.59965,1.68597 -0.0638,2.361738 -0.1552,0.293342 -0.49075,0.788564 -0.27088,1.042506 0.24451,0.131733 0.53757,0.0099 0.67648,-0.214791 -0.0795,1.837991 0.5583,3.681701 0.71875,5.445308 -0.3464,-0.303612 -0.67987,0.16781 -0.36914,0.46289 0.75952,1.47262 0.38585,3.22019 0.39062,4.8125 -0.16876,1.66598 -0.0897,3.40429 -0.79492,4.96094 -1.14031,3.6754 0.009,7.50361 -0.0136,11.24437 0.0696,1.9939 -0.0559,3.98653 -0.11142,5.97828 0.33898,-0.35587 0.48207,-1.35899 1.15625,-1.05078 0.60945,0.46956 0.20853,1.47994 0.85899,1.96736 0.17658,0.62688 -0.63629,1.47237 0.0121,2.01507 0.18638,0.34507 0.10452,0.92201 0.3391,1.32153 0.22432,0.50568 0.55158,0.96992 0.35309,1.54702 -0.1011,0.93644 -0.21689,2.00313 0.38593,2.80527 -0.10694,2.44414 -0.0399,4.89732 -0.28748,7.33626 -0.19577,2.5869 -0.53897,5.16939 -0.68127,7.75554 0.10449,0.36467 0.50623,0.22811 0.39656,0.69335 0.38093,1.71293 1.53185,3.20426 1.54191,5.01035 0.15669,1.5181 -0.0768,3.06596 0.10841,4.57169 0.33429,0.48819 0.64528,-0.22948 0.65814,-0.56014 0.64711,-2.82359 1.66707,-5.78699 0.78093,-8.67906 -0.20417,-0.68901 -0.78666,-1.32405 -0.60704,-2.0733 -0.46234,-0.95888 -0.69664,-2.14439 -0.42969,-3.14062 0.61739,-0.60821 0.58549,-1.53428 0.79164,-2.32212 0.18079,-0.58554 0.2306,0.35997 0.0951,0.64243 -0.009,0.29651 0.33034,0.90831 0.54101,0.39648 0.18819,-0.65368 0.74641,-1.17195 0.68959,-1.9045 0.0508,-0.84847 0.22239,-1.73483 -0.14662,-2.54276 0.44459,-2.04519 1.06616,-4.19998 0.54883,-6.28711 -0.25278,-0.69036 -0.82941,-1.18322 -1.42773,-1.57422 -0.29027,-1.67049 -0.49599,-3.36457 -0.47071,-5.0625 0.57111,0.11742 0.40066,-0.85623 0.041,-1.01401 -0.52243,-0.14398 -0.39301,-0.81222 0.0235,-1.01529 0.31343,-0.15865 0.24,-0.62834 -0.14063,-0.58398 -0.17358,-0.41015 -0.21831,-0.85087 -0.26367,-1.26563 0.30218,-0.079 0.0109,-0.77876 0.0968,-0.62607 0.26317,0.66703 0.56765,1.34543 1.14543,1.80576 0.0699,-1.03686 -0.38759,-2.0456 -0.97266,-2.84961 -0.32491,-0.19548 -0.3823,-1.03431 -0.89844,-0.84375 -0.1866,0.17993 0.0399,0.85285 -0.20721,0.31122 -0.34407,-0.68512 -0.56602,-1.44876 -0.49005,-2.22138 -0.47995,0.23713 -0.73928,-0.39307 -0.42969,-0.68164 0.12806,-0.29888 -0.46047,-0.4487 -0.0957,-0.64843 0.0629,-0.52035 -0.44794,-0.95481 -0.3418,-1.51367 -0.0329,-0.35846 -0.24033,-0.97061 -0.63867,-0.92774 -0.26387,-0.27848 0.22877,-0.35404 0.50976,-0.41992 0.43133,1.05286 0.59394,2.36382 1.07227,3.45312 0.27614,0.36003 0.65596,-0.0539 0.50391,-0.40234 -0.0829,-0.94861 -0.6526,-1.88107 -0.39454,-2.83789 0.42607,0.34773 0.49784,-0.39638 0.45385,-0.67997 0.094,-2.38557 1.35353,-4.64519 0.96803,-7.06417 0.50955,-0.59697 0.0386,-1.50284 -0.57031,-1.79102 0.0168,-0.77225 0.24021,-1.54606 0.28097,-2.32978 0.17666,-1.48668 0.51971,-2.98114 0.78348,-4.467088 -0.39802,0.485268 -0.61722,0.880528 -0.6543,0.05469 -0.11629,-0.27755 0.5524,-0.0889 0.45313,-0.626954 0.0243,-0.190325 0.0364,0.446626 0.30273,0.47461 0.44274,0.201987 0.67751,-0.429145 0.38867,-0.716797 -0.0912,-0.681302 -0.25647,-1.406251 -0.4414,-2.025391 0.14882,-0.661394 -0.48295,-1.289209 -0.28516,-1.919922 0.60514,-0.09087 -0.34168,-0.639709 -0.24577,-1.072934 -0.17259,-0.98735 -0.003,-2.23475 -0.90852,-2.901675 0.26216,-0.251912 0.098,-0.660135 -0.27149,-0.648437 -0.55792,-1.012321 -0.30537,-2.229908 -0.32617,-3.330078 0.67039,-0.996864 -0.57566,-2.239288 0.24697,-3.186274 0.56958,-0.781624 0.42203,-1.834751 0.63945,-2.737291 0.17533,-1.470464 0.32364,-2.954562 0.37334,-4.429951 -0.41935,-1.018615 -0.10034,-2.151781 -0.18575,-3.221818 0.0532,-4.063435 -0.18783,-8.122641 -0.40214,-12.178573 4.32433,-0.808501 8.63804,-1.909748 12.66213,-3.697161 0.32857,-0.292441 0.0355,0.745302 0.0996,1.027239 -0.0713,1.099604 -0.21469,2.228662 -0.0156,3.308594 -0.1382,0.584108 0.14108,1.222973 -0.0449,1.771485 -0.72535,0.08763 -0.41507,1.017567 -0.4336,1.502343 -0.0541,0.928521 -0.0297,1.872715 0.31055,2.74375 -0.50507,0.649678 -0.11735,1.550598 -0.16797,2.304688 0.10728,0.883985 -0.11814,1.755239 0.0689,2.629311 0.14116,1.574871 -0.20343,3.242989 0.3759,4.747715 0.2753,0.357604 -0.18633,0.812264 0.14644,1.192049 0.31841,0.741644 0.12559,1.598015 0.21919,2.391026 0.0645,1.598223 -0.0123,3.195788 -0.15742,4.782863 0.0521,1.464149 0.34681,2.983022 -0.0891,4.401003 -0.14903,0.562157 -0.12352,0.803838 -0.24199,0.162924 -0.26535,-0.513513 -0.62686,0.05595 -0.69501,0.394281 -0.3085,0.692152 -0.0524,1.4522 -0.22851,2.173828 -0.0248,0.296636 0.0501,1.036523 0.1994,1.008896 0.37551,-0.50852 0.61612,-1.107674 0.66779,-1.739365 -0.15224,1.730447 -0.28488,3.462454 -0.40626,5.195312 0.0733,-0.348662 -0.34747,-0.817592 -0.55078,-0.347656 -0.37753,1.305507 -0.46179,2.769298 0.11914,4.037118 0.30533,-1.11843 0.21745,-0.25658 0.16918,0.40849 -0.0628,0.70817 -0.12078,1.40042 0.0672,2.08565 -0.13241,5.59188 -0.36766,11.18552 -0.35378,16.78164 -0.0683,11.55079 0.23006,23.13626 1.66836,34.60552 0.25256,0.51735 -0.40322,0.0134 -0.67005,0.22612 -0.54173,0.3613 0.24486,0.77682 0.61588,0.80218 0.6748,0.0529 0.6554,0.84302 1.04037,1.25055 0.57938,0.89672 1.28453,1.69932 1.98243,2.50391 -0.16687,-1.07666 -0.3742,-2.15475 -0.79102,-3.16602 1.34139,0.35925 2.72373,0.75486 4.12519,0.50542 0.49849,-3e-4 0.97678,-0.14349 1.42364,-0.35698 -1.31098,-0.64969 -2.81207,-0.5224 -4.20303,-0.88115 -0.56448,-0.1508 -1.30779,-0.12274 -1.75017,-0.41619 -0.81805,-2.75024 0.16609,-5.53539 0.40632,-8.29055 0.10278,-0.53588 -0.54195,-0.39003 -0.53744,-0.34994 0.0721,-0.83453 0.12617,-1.68036 -0.0153,-2.51139 0.36697,-0.41789 0.90643,-0.9758 0.49726,-1.54964 -0.31502,-1.0758 -0.33563,-2.20673 -0.33515,-3.3195 -0.28134,0.38346 -0.89491,0.85404 -0.72071,0.0371 -0.14307,-1.14097 0.0851,-2.29128 0.16016,-3.41797 -0.14815,-0.44812 -0.62421,0.18694 -0.45948,-0.45753 -0.0608,-1.17355 -0.23219,-2.35281 -0.0893,-3.52684 0.2666,0.34135 0.61502,-0.0638 0.40343,-0.37133 -0.40662,-0.85747 -0.52456,-1.91722 0.038,-2.73805 -0.0648,-1.06093 -0.14562,-2.24998 -0.0117,-3.24023 0.36731,0.37778 0.63927,-0.18441 0.51758,-0.53321 0.0614,-1.68983 0.32601,-3.38414 0.23047,-5.07226 -0.39643,-0.82548 -0.68035,-1.79641 -0.63086,-2.68945 0.33806,-0.63052 -0.42336,-1.22183 -0.18797,-1.8734 0.0605,-0.85324 0.23892,-1.73291 -0.11788,-2.54477 -0.20014,-2.62526 0.0783,-5.26599 0.15975,-7.89461 0.16947,-2.77235 0.16047,-5.551074 0.1767,-8.325511 0.12979,-2.338765 0.45101,-4.669383 0.40299,-7.016015 -0.30874,-0.06045 2.7e-4,-0.687559 -0.0879,-0.955078 0.16716,-3.670478 0.12011,-7.368788 0.79484,-10.994232 0.0946,-0.657309 -0.0111,-1.316338 -0.1757,-1.953034 -0.14693,0.332404 -0.0808,-0.676978 -0.17207,-0.909087 -0.20827,-1.311146 -0.10085,-2.63487 0.0657,-3.93929 -0.01,-0.262085 0.035,-0.751727 -0.32132,-0.760998 -0.0636,-2.924722 -0.45147,-5.840576 -0.49546,-8.76108 0.14628,-1.062773 -0.15407,-2.133995 -0.11196,-3.20767 3.02779,2.175808 6.13952,4.249133 8.92653,6.731649 3.02234,2.89016 6.3768,5.411788 9.90033,7.659178 1.19139,0.78953 2.36521,1.604938 3.54618,2.409955 0.17943,2.985454 0.10302,5.985134 0.19568,8.968219 0.0207,0.436167 0.53849,0.294455 0.55135,-0.07784 0.0799,-0.342011 0.35485,-0.871008 0.66703,-0.880615 0.24824,0.853994 0.11728,1.822672 0.70508,2.5625 0.17679,1.116387 -0.43731,2.254449 -0.0176,3.353516 0.47067,-0.08343 0.08,0.589192 0.24553,0.841564 0.042,0.956893 0.6264,1.840391 0.80526,2.715076 -0.30319,0.726899 -0.0905,1.604353 -0.18438,2.385154 -0.0627,0.999945 0.13079,2.029108 0.5423,2.913434 -0.12183,1.684597 0.0996,3.374995 0.0621,5.063575 0.12185,6.86414 -0.16383,13.72618 -0.33412,20.58706 0.19375,0.29747 0.52755,0.42377 0.41016,0.85547 0.33638,2.60487 1.60854,4.96716 1.71424,7.61322 0.30904,2.71963 0.16225,5.47195 0.36584,8.19342 0.13812,0.47693 0.66491,0.1784 0.60937,-0.22852 0.48656,-5.09909 1.47159,-10.30762 0.3773,-15.39613 -0.18541,-1.11352 -0.82162,-2.13039 -0.68198,-3.28941 -0.18469,-0.95669 -0.54896,-1.88951 -0.57365,-2.88447 -0.10635,-0.89931 -0.0153,-1.96222 10e-4,-2.76202 0.53334,-0.59101 0.32102,-1.48959 0.50176,-2.21495 0.0939,-0.83971 0.15812,-1.68376 0.1584,-2.52919 -0.37294,-0.3312 -0.14462,-0.25297 0.11328,-0.0195 0.22503,0.53036 -0.34677,1.4589 0.24804,1.92188 0.51514,-0.1593 0.38886,-0.89656 0.61472,-1.31306 0.38492,-1.45467 0.2104,-2.98431 0.26248,-4.47322 0.0935,-0.73451 -0.44757,-1.35272 -0.26825,-2.07143 0.23887,-3.66727 0.78736,-7.38625 0.18813,-11.043807 -0.15667,-0.804945 -0.71469,-1.4615 -1.43184,-1.836772 0.48669,2.438143 0.76636,4.927458 0.66016,7.416015 -0.11598,-4.853023 -1.17085,-9.583553 -1.33296,-14.427608 -0.0134,-0.688523 -0.11221,-1.501561 -0.0342,-2.107548 0.56672,-0.154724 0.25107,-1.110288 -0.23522,-1.217353 -0.24867,-0.254844 -0.10907,-0.832802 -0.0752,-1.206888 0.18392,-0.703628 0.55637,-1.357803 0.60144,-2.097243 -0.34633,0.418596 -0.72267,0.861521 -0.66797,0.02344 -0.10228,-0.489017 -0.1038,-0.992576 -0.19921,-1.482422 0.15484,-0.03819 0.14633,-0.714613 0.0765,-1.021554 -0.0511,-0.306857 -0.23989,-0.633311 -0.56278,-0.706961 0.1795,-0.424657 0.34342,-0.663098 0.48996,-0.08477 0.30214,0.637907 0.36653,1.487064 0.85379,1.971485 0.61232,0.03253 0.26384,-0.80986 0.16797,-1.132812 -0.25959,-1.052384 -0.75937,-2.114045 -1.51563,-2.855469 -0.34453,0.03472 -0.23972,0.606675 -0.24609,0.888672 0.24612,0.161864 0.19651,0.645144 -0.0605,0.287109 -0.19648,-0.612951 -0.35158,-1.441676 -1.13476,-1.544921 -0.5379,-0.244719 -1.04978,-0.542217 -1.53516,-0.878907 -0.1948,0.59617 -0.75408,-0.0062 -1.11524,-0.08008 -0.214,-0.322811 -0.48557,-0.586356 -0.90001,-0.508428 -0.46094,0.113773 -0.10017,-0.482715 -0.55932,-0.538658 -0.94135,-0.262875 -1.69456,-0.920927 -2.59467,-1.264436 -0.32303,-0.198143 -0.62229,0.102763 -0.83271,-0.03028 -0.22256,-0.233094 -0.69029,-0.365568 -0.52344,-0.769531 1.6885,0.738303 3.32643,1.6638 5.05859,2.257813 0.48737,-0.03949 0.27754,-0.601108 -0.082,-0.6875 -1.53048,-0.821993 -3.22465,-1.37994 -4.5469,-2.53773 -0.0331,-0.620274 -0.87896,-0.853208 -1.31247,-1.234313 -3.19396,-2.166445 -6.18866,-4.658467 -9.5879,-6.499442 -0.52875,0.02508 -0.66248,-0.424616 -1.0698,-0.667974 -0.61559,-0.450771 -1.33888,-1.004217 -2.12941,-0.908198 -1.28563,-0.870248 -2.62429,-1.682474 -3.94336,-2.513672 0.3674,-0.701516 0.70528,-1.417167 1.05273,-2.128906 -0.16992,0.113281 -0.33984,0.226563 -0.50976,0.339844 z m -23.59961,5.498047 c -0.45851,0.695023 -1.44246,0.588987 -2.16488,0.850964 0.11328,0.07137 0.39727,-0.613485 -0.0832,-0.577527 -1.41035,0.266584 -2.79475,0.73284 -4.11719,1.294922 -0.11087,0.155082 -0.8823,0.320349 -0.55273,0.742188 -1.06725,0.405393 -2.13688,0.709537 -3.25977,0.916015 0.62258,0.393343 -0.21968,0.362192 -0.50976,0.484375 -0.45991,-0.161258 -0.71762,0.210447 -1.00782,0.470703 -0.16252,-0.48762 -0.74503,7.34e-4 -1.18886,0.108469 -0.57162,0.272436 -1.28482,0.281594 -1.78965,0.651297 -0.23769,0.415536 -0.21145,0.846258 -0.1875,1.324219 -0.45835,0.301413 -0.21317,-0.464861 -0.35938,-0.714844 -0.28726,-0.469488 0.16574,-0.886231 0.63672,-0.867187 0.87873,-0.351447 1.83538,-0.506095 2.66016,-0.988282 0.14259,-0.657197 -0.73764,-0.407172 -1.0751,-0.269773 -1.04025,0.318671 -2.08392,0.648143 -3.12607,0.968992 0.10404,0.464991 0.006,1.035365 -0.0937,1.443359 -0.48713,0.36179 -0.22119,1.129987 -0.31833,1.660787 -0.13123,3.489336 -0.95722,6.930522 -0.84378,10.432963 0.47428,0.377034 -0.15375,0.937336 -0.11588,1.413423 -0.1383,0.748257 0.0292,1.578404 0.569,2.127593 0.19873,0.811867 -0.13414,1.639966 -0.0933,2.475392 -0.16685,2.612725 -0.46153,5.222604 -0.70167,7.823436 0.25293,0.306579 0.3635,0.349491 0.30031,0.840633 0.0278,0.451766 0.11963,0.899899 0.16258,1.339055 -0.34532,-0.266679 -0.5254,0.364751 -0.55859,0.638672 -0.0567,-0.299649 -0.35499,-0.932075 -0.50306,-0.870928 -0.36813,0.808905 -0.0255,1.686243 -0.0569,2.537216 0.0748,0.5134 0.031,1.177981 0.36075,1.562227 0.42151,0.131191 0.42928,-0.878996 0.38281,-0.05078 0.21093,0.738527 -0.2675,0.274793 -0.45703,0.74414 -0.12653,1.067617 0.35366,2.112217 0.30469,3.185547 -0.4759,0.44265 0.20648,1.05678 0.13578,1.55231 0.21245,1.5202 -0.20209,3.26158 0.75289,4.59027 0.4578,0.1857 0.12428,0.40818 -0.0254,0.67969 -0.10451,0.46835 0.71297,0.3539 0.59047,0.85257 0.31441,1.80025 0.2147,3.66299 0.16335,5.4671 -0.69483,1.54601 0.44727,3.20461 -0.0977,4.78465 -0.0418,0.76599 -0.64799,1.32673 -0.60525,2.09991 -0.48593,3.78872 -0.76843,7.59972 -1.00592,11.411 0.4128,0.55097 0.13732,1.31806 0.22103,1.95927 -0.10233,4.49216 -0.24817,8.98393 -0.15947,13.4778 0.0673,11.9642 0.64845,23.94387 2.165,35.81488 0.24443,1.65345 1.2719,3.01121 2.31641,4.25391 -7.69053,-0.53858 -15.38808,0.29068 -23.08438,0.15403 -4.45374,-5.1e-4 -8.90788,-0.27479 -13.35207,-0.43789 -0.48881,0.0146 -0.25988,0.57301 0.11028,0.59441 0.39078,0.0671 1.00261,0.36239 0.83984,0.83203 -1.2177,0.39246 -2.52964,0.11907 -3.76172,0.4414 -0.0535,0.53161 -0.6997,0.24062 -1.09604,0.31306 -1.54821,0.077 -3.02058,-0.65278 -4.57555,-0.41725 -0.37685,0.0637 -0.44404,0.5121 -0.94755,0.26826 -1.96069,-0.19905 -3.87773,0.45874 -5.7793,0.69726 -0.20515,-0.54097 -0.99381,-0.24501 -1.4356,-0.3932 -1.24256,-0.10726 -2.4832,-0.26988 -3.73236,-0.27086 -0.66454,-0.58889 -1.58851,-0.75036 -2.36719,-1.14453 -0.74439,-0.25481 -1.57654,-0.21881 -2.31055,-0.0254 0.37242,-0.49398 -0.34649,-0.70898 -0.71706,-0.81502 -1.14836,-0.36504 -2.30793,-0.87602 -3.51726,-0.91126 -0.42296,0.19113 -0.76208,-0.27565 -1.22031,-0.21378 -0.38475,-0.056 -1.25857,-0.20444 -1.17232,0.41662 0.35247,0.46023 1.07176,0.57698 1.62294,0.48192 0.40958,0.0807 0.43625,-0.62158 0.70714,-0.20458 0.275,0.2503 0.78598,0.18146 1.01757,0.38086 0.25599,0.52163 1.01269,0.54996 1.50447,0.78489 0.54299,0.15598 1.20272,0.60652 1.73186,0.25808 1.04125,0.48811 2.16476,0.74971 3.25,1.11719 -0.75921,0.29438 -1.5467,0.22067 -2.32812,0.0937 -6.82255,-0.38263 -13.63201,-1.00012 -20.41602,-1.82031 0.96697,-0.26154 2.04903,-0.41935 3.02735,-0.72266 2.87371,-0.89222 5.96063,-0.38816 8.92773,-0.44336 0.48655,-0.1079 0.21246,-0.65323 -0.19336,-0.62305 -3.93052,-0.61143 -8.03977,-1.59234 -11.96388,-0.42364 -0.81538,0.32917 -1.72173,0.18524 -2.53417,0.53693 -0.92338,0.22893 -1.87907,0.33885 -2.83007,0.27929 -0.16151,0.23549 -0.51993,-0.34476 -0.81641,-0.25976 -0.46477,0.0163 -0.92775,-0.0725 -1.39063,-0.1211 0.47647,-0.21848 -0.0597,-0.6734 -0.39257,-0.66015 -1.22017,-0.45139 -2.55298,-0.28113 -3.82422,-0.31446 -0.42162,0.0568 -0.77506,0.37109 -1.18438,0.13669 -2.65898,-0.18739 -5.37575,-0.80424 -8.02461,-0.21286 -0.74548,0.18373 -1.0732,1.13352 -1.90169,1.01884 -1.89909,0.2062 -3.88532,0.31183 -5.7526,0.29757 -0.0617,-0.49971 -0.83957,-0.2472 -1.08399,0.008 -0.16297,0.47533 -0.89303,0.23016 -1.22719,0.0478 -0.5159,-0.24247 -0.93021,0.35797 -1.46283,0.27764 -0.17418,0.0401 -1.14785,0.21845 -0.58537,0.0496 0.29976,-0.0869 0.91426,-0.54199 0.82197,-0.66448 -1.15075,-0.15414 -2.23392,0.38767 -3.27314,0.78948 -0.45256,0.18476 -0.59179,0.60853 -0.86611,0.59753 -0.58568,0.0759 -1.17676,0.0904 -1.7667,0.0978 -0.005,0.48626 -0.67775,0.10357 -0.95703,0.19532 0.6978,-0.28334 -0.42734,-0.35223 -0.73829,-0.39844 -0.99802,0.0346 -1.98718,0.21558 -2.98632,0.18164 -0.46901,0.17303 -0.96137,-0.25266 -1.46875,-0.084 -0.87534,0.1431 -0.52128,-0.10699 0.0143,-0.48841 1.32588,-1.05906 2.82668,-1.92869 4.04062,-3.10757 0.20265,-0.36574 0.73862,-0.22263 1.00148,-0.5611 0.29481,-0.19605 0.61203,-0.52024 0.52363,-0.90542 1.99902,-1.51497 4.14968,-2.83447 6.33948,-4.03825 0.18854,-0.27018 -0.0247,-0.49872 0.39473,-0.65208 0.25722,-0.26762 0.41027,-0.60981 0.674,-0.23545 0.36493,0.0848 0.75614,-0.3743 0.44726,0.14649 -0.33772,0.68506 0.16807,0.3864 0.5657,0.14691 0.66535,-0.46858 1.37454,-0.9631 1.84641,-1.62738 0.72121,-0.15284 1.15265,-0.91848 1.77735,-1.27344 0.47989,0.11432 0.59699,-0.0623 0.81054,-0.48437 0.7556,-0.79353 2.20546,-0.87864 2.59766,-2.01954 -0.0213,-0.35554 0.91754,0.0835 0.69922,-0.49804 -0.37478,-0.30881 0.28589,-0.51455 0.50195,-0.6836 1.16379,-0.4261 2.32781,-1.04639 3.59375,-1.01953 0.96237,-0.19862 1.78341,-0.96116 2.81641,-0.78906 0.77446,0.18546 1.55791,0.25263 2.35585,0.17503 1.47716,-0.0206 2.9557,0.009 4.4293,0.11599 -0.3897,0.0615 -1.2375,-0.20211 -1.27539,0.38671 0.3088,0.47997 1.03433,0.38324 1.54297,0.45508 0.56838,-0.005 1.0969,-0.2333 1.59961,-0.47656 -0.67268,-0.24753 -0.86004,-0.32569 -0.053,-0.20695 0.49058,0.0726 0.95418,0.1661 1.39484,-0.0391 5.66965,0.6426 11.16815,2.53237 16.26485,5.0645 5.45901,2.69599 10.49329,6.18063 15.20459,10.01994 1.16884,0.78257 2.58159,1.01647 3.91532,1.37259 -1.05129,-1.4809 -2.91728,-1.96528 -4.14257,-3.24414 -1.05793,-1.11946 -1.83686,-2.47973 -3.00391,-3.49805 -0.34058,0.18156 -0.41344,0.0747 -0.67188,-0.2168 -0.39725,-0.38184 -1.01777,-0.61608 -1.0625,-1.22851 -0.22975,-0.67124 -1.09697,-0.59212 -1.56168,-1.03891 -0.44863,-0.27194 -0.85617,-0.60335 -1.27621,-0.91617 0.0607,0.30585 0.32368,1.09511 -0.19726,0.54687 -0.88961,-0.51364 -1.53922,-1.35359 -2.45703,-1.83203 0.37168,0.65024 0.0999,0.5266 -0.34766,0.22071 -0.52254,-0.26875 -1.17611,-0.58106 -1.56445,-0.92774 0.48746,-0.20053 -0.013,-0.60709 -0.3654,-0.52053 -0.70984,0.02 -1.24383,-0.46954 -1.61702,-1.01267 -0.63564,-0.30905 -1.50138,-0.62103 -1.95118,-1.02344 0.34763,-0.47955 -0.49714,-0.67369 -0.77703,-0.87639 -0.98673,-0.50856 -1.93312,-1.18748 -3.01203,-1.45369 -0.59294,0.13163 -1.34889,0.16887 -1.85351,-0.11523 -0.4103,-0.42991 -1.05683,0.10514 -1.51544,-0.2829 -0.57893,-0.33988 -1.22698,-0.43932 -1.883,-0.34015 -3.62447,-0.76031 -7.28495,-1.88006 -11.03516,-1.50586 -2.25917,-0.0669 -4.54675,-0.2268 -6.77539,0.25391 0.78256,0.20243 -0.51955,0.20385 -0.79151,0.30329 -2.67471,0.46671 -5.31184,1.20677 -8.04216,1.27821 -0.59201,0.1106 -1.16167,0.33795 -1.62336,0.73295 0.58342,0.0848 0.47958,0.19005 0.0449,0.4375 -0.72218,0.66409 -1.60531,1.12008 -2.58398,1.20117 -0.47863,0.0887 -0.93628,0.26188 -1.35938,0.50196 0.0305,0.33619 0.93691,0.31611 0.45034,0.50375 -1.73017,1.10151 -3.12068,2.63255 -4.69252,3.93375 -0.2431,-0.50244 -0.66752,0.10092 -0.73358,0.41518 -1.65892,2.44114 -3.95541,4.35626 -5.92132,6.53921 -1.71241,1.78779 -3.49638,3.50692 -5.03846,5.4499 5.93563,0.78758 11.94793,0.98397 17.86941,1.80185 0.39959,0.0967 0.58234,-0.38915 0.17312,-0.52342 -0.23549,-0.08 -0.69394,-0.50914 -0.13824,-0.4835 0.61594,-0.0313 1.33324,-0.005 1.80611,-0.42567 0.88185,-0.15429 1.93573,0.57061 2.69389,-0.0743 0.9179,0.0979 1.76084,-0.37042 2.62891,-0.54688 1.29707,0.18468 2.699,0.31373 3.93164,-0.22852 3.12524,0.0566 6.25166,-0.0424 9.37734,0.0459 0.32084,0.038 1.95936,-0.0654 1.06075,0.10336 -2.97515,0.69076 -5.98008,1.3321 -8.93223,2.07337 -0.28434,0.18483 -0.0726,0.57671 -0.54102,0.5 -4.16965,1.29312 -7.8627,3.74287 -12.06541,4.94066 -3.99731,1.35249 -8.16812,2.19399 -12.17873,3.44801 -0.38582,0.34017 0.16177,0.65464 0.50391,0.5 7.827,-1.40354 15.87615,-2.26712 23.22719,-5.48773 1.28878,-0.53467 2.46394,-1.36888 3.87828,-1.55328 1.31313,-0.45031 2.53043,-1.16565 3.87249,-1.55812 1.59402,-0.54039 3.22875,-0.93485 4.86579,-1.21923 0.62332,0.35258 1.4017,-0.094 2.03378,0.16518 1.34552,0.29978 2.70291,0.52227 4.06388,0.72545 0.39568,0.0602 1.2501,-0.18727 1.16632,-0.082 -0.40669,-0.0913 -0.50248,0.5074 -0.82062,0.38276 -0.74367,-0.0513 -1.51244,-0.4159 -2.24014,-0.26962 -0.99891,0.16029 -0.21124,0.39625 0.32863,0.62204 1.86656,0.85823 3.92607,0.86847 5.91794,1.19995 1.03726,0.0939 2.11735,0.28024 3.14201,0.11365 0.33706,-0.39892 0.97019,0.0584 1.44679,0.0333 5.06113,0.8291 10.13499,1.75527 15.27508,1.85755 1.27191,-0.0303 2.68858,-0.10317 3.72734,-0.92014 0.30105,-0.48124 -0.49104,-0.43824 -0.77343,-0.36133 -3.80068,0.21535 -7.63484,0.0715 -11.38282,-0.53906 5.63215,0.55779 11.29511,0.35651 16.94297,0.27649 3.46149,-0.015 6.9238,0.0484 10.38125,0.2196 -0.15004,0.63245 0.7359,0.4355 1.09766,0.33985 0.23896,-0.0735 0.51016,-0.25997 0.47852,-0.54102 1.08171,-0.0816 2.19517,-0.011 3.16015,0.52344 0.24105,0.17829 0.87565,0.31512 0.79688,-0.17383 1.35886,-0.21183 2.81408,-0.095 4.13476,-0.2832 -0.0799,0.41022 0.59112,0.2194 0.86914,0.25976 0.51346,-0.0685 1.34018,-0.20896 1.26953,-0.86914 0.27573,0.19921 0.75697,0.48425 0.91016,0.625 -1.3783,0.55935 -2.93258,0.5718 -4.31836,1.0293 -0.36772,0.33682 0.17228,0.6454 0.50781,0.50195 2.05585,-0.32596 4.239,-0.55681 5.98828,-1.79297 -0.58016,-0.16201 -1.29579,-0.3476 -1.77148,0.15625 -0.14568,-0.40853 0.15333,-0.53962 0.55664,-0.58398 1.76213,-0.42475 3.57475,-0.61051 5.39258,-0.50781 -0.12412,-0.41905 -0.256,-0.66967 0.32998,-0.60439 0.59246,-0.12973 1.24945,-0.12455 1.77158,0.14149 0.44382,-0.16292 0.96728,-0.68502 1.36133,-0.58398 -0.10873,0.51766 0.55305,0.59884 0.88407,0.39159 1.17768,-0.23579 2.39177,-0.20898 3.57298,-0.32739 0.35982,-0.0641 0.9831,-0.21281 0.88084,-0.71459 0.74685,-0.0152 1.75657,-0.18578 2.14923,0.63477 0.71374,0.43484 -0.53947,0.2772 -0.87875,0.41569 -2.22845,0.31238 -4.50088,0.53006 -6.72946,0.84602 -0.38856,0.12597 -0.31741,0.66135 0.1113,0.60281 2.1858,-0.0401 4.36293,-0.50111 6.54831,-0.48132 0.62358,0.17421 1.31734,0.17854 1.92437,0.26523 -0.0595,0.60149 0.8042,0.44442 1.1903,0.47889 6.06249,0.20955 12.03204,1.6361 18.11243,1.52893 0.25211,-0.27364 0.38754,-0.39082 0.79426,-0.19829 1.21505,0.33577 2.61105,0.69803 3.79754,0.0948 0.37838,-0.20595 0.33936,-0.91286 0.90987,-0.72076 5.27786,0.412 10.57625,0.65658 15.84238,1.2106 0.54393,0.12809 0.23782,-0.52698 0.52978,-0.43643 1.13083,-0.0236 2.23638,-0.2993 3.3625,-0.37763 -0.37506,0.25056 -0.27127,0.83213 0.22471,0.78894 1.08146,0.0832 2.19696,0.14293 3.26357,0.0157 0.20389,-0.44285 0.53072,-0.35863 1.02697,-0.30943 0.84802,0.0479 1.70518,0.0758 2.54725,-0.0539 -0.34529,0.4233 -1.17633,0.33625 -0.23047,0.63476 0.94123,0.2648 1.90258,-0.14256 2.8461,-0.21893 0.83427,-0.17263 1.82388,-0.50136 2.56797,0.10175 1.33098,-0.89186 3.02561,-0.54772 4.53184,-0.75081 1.17002,-0.0634 2.49782,-0.059 3.43886,-0.85466 0.16593,-0.33641 0.23654,-0.64891 0.62891,-0.33399 0.29574,0.108 1.01096,0.51574 1.00976,-0.0566 -0.31689,-0.49565 0.58667,-0.54371 0.90975,-0.59691 2.58545,-0.32788 5.24328,-0.26418 7.85978,-0.28785 1.70774,0.63945 3.52042,0.0629 5.24526,-0.13615 1.70023,-0.0759 3.34301,0.26595 4.94964,0.77187 6.22827,0.48425 12.47896,0.71968 18.72698,0.82717 0.42188,-0.44745 1.15601,-0.18812 1.70481,-0.31498 5.73812,-0.17541 11.48226,-0.0236 17.21839,-0.29721 18.42766,-0.53503 36.84089,-1.60373 55.19876,-3.29917 2.72355,-0.26499 5.55845,-0.3053 8.06578,-1.53705 0.90584,-0.43821 1.91831,-0.85937 2.66968,-1.47542 -0.0148,-0.55732 -0.80239,-0.2408 -1.14557,-0.21399 -2.72842,0.46454 -5.391,1.47139 -8.19935,1.33133 -3.01923,-0.01 -6.0242,-0.58708 -9.02813,-0.63101 -0.54245,0.11643 0.18722,0.68439 -0.19211,0.54324 -1.35904,-0.0291 -2.72996,-0.12867 -4.07937,0.0857 -0.70228,-0.28736 -1.39627,-1.03132 -2.19363,-0.57872 -1.63554,0.41211 -3.32989,0.46153 -5.00754,0.49279 0.14388,0.22585 1.17412,0.78759 0.69531,0.78125 -1.95682,0.22932 -3.9398,0.13261 -5.88943,-0.035 -0.37352,5e-4 -0.36973,0.44458 -0.0344,0.51934 -2.16222,0.15536 -4.32926,0.45549 -6.5,0.2793 0.29901,-0.21406 0.26065,-0.72108 -0.1875,-0.4961 -1.2395,0.51443 -2.67679,0.77696 -3.94141,0.19727 -1.09006,-0.26226 -2.20327,0.10845 -3.31109,0.0375 -0.83233,0.0227 -1.66584,0.0183 -2.4975,-0.0238 0.25311,-0.12023 0.59626,-0.65699 0.11328,-0.66601 -2.76326,-0.0628 -5.53905,-0.3118 -8.29468,-0.24561 -0.82242,0.32495 -1.6153,0.72468 -2.50745,0.83025 -0.67068,0.17308 -1.39622,0.40137 -2.03966,0.054 -0.7122,-0.0641 -1.27546,0.58174 -2.01368,0.47851 -1.07624,0.0408 -2.16979,-0.28861 -3.23047,-0.0605 -1.3833,0.55094 -2.93657,0.43611 -4.40625,0.50586 -6.74588,0.019 -13.48733,-0.55885 -20.23242,-0.2461 -3.41792,-0.0321 -6.80807,-0.53751 -10.21693,-0.74107 -1.00719,-0.0969 -2.01997,-0.0963 -3.02916,-0.0324 0.9657,0.37533 0.10911,0.23696 -0.41938,0.21453 -5.73717,-0.36039 -11.56431,-0.30184 -17.1489,-1.78668 -0.41931,-0.16351 -1.38433,-0.33774 -0.46056,-0.45005 0.85863,-0.0933 1.74532,-0.24018 2.60892,-0.13014 0.39121,0.46066 0.98265,0.29453 1.44922,0.0859 1.2683,-0.19552 2.48339,0.52631 3.74609,0.43555 1.25537,-0.41482 2.64973,-0.16083 3.95648,-0.0809 6.11792,0.54605 12.24574,1.37515 18.40132,1.05869 3.31146,0.0418 6.60267,0.51228 9.9172,0.50622 0.7258,0.0281 1.44793,-0.0524 2.16836,-0.12858 -0.95666,-0.3193 -0.24862,-0.25553 0.3226,-0.26027 5.33662,-0.0188 10.7029,-0.73899 16.02059,-0.1498 1.15053,0.17867 2.397,0.27191 3.49861,-0.15633 0.2739,-0.42487 -0.62357,-0.40143 -0.65625,-0.48828 1.48187,-0.32634 2.85272,-1.001 4.27153,-1.49981 1.69789,-0.36056 3.47557,0.0455 5.1562,-0.44941 -0.45916,-0.62408 -1.26554,-0.57393 -1.94922,-0.51953 4.17449,-1.0461 7.8897,-3.27928 11.67481,-5.24308 0.30084,-0.0377 0.96585,-0.7382 0.87597,-0.1456 0.27139,0.57976 0.70377,-0.21736 0.99359,-0.38572 1.53134,-1.15337 3.37314,-1.93014 5.05099,-2.89089 4.29371,-2.26607 8.48018,-4.73958 12.44076,-7.55105 4.55271,-2.46833 8.56118,-6.07682 11.14357,-10.59812 -0.53333,-1.20118 -1.14289,-2.417 -1.58399,-3.62695 -0.58745,-0.2594 -1.27568,-0.0522 -1.8992,-0.19713 -8.43456,-0.56073 -16.88457,-0.95167 -25.2922,-1.8556 -0.25548,0.49885 0.25189,0.77238 0.66601,0.83203 0.3129,0.23738 0.004,0.4825 -0.29637,0.44695 -1.08706,0.18366 -2.22876,-0.0142 -3.31105,0.26789 0.0564,0.4193 -0.59932,0.18345 -0.89335,0.25426 -1.47118,0.0516 -2.91625,-0.58989 -4.37442,-0.37623 -0.29236,0.33641 -0.66816,0.28224 -1.11895,0.25674 -1.69769,-0.0832 -3.35595,0.57939 -4.9414,0.91015 -0.22199,-0.53258 -1.01327,-0.18837 -1.45328,-0.32449 -1.88156,-0.10024 -3.87411,-0.34008 -5.64829,0.45535 -1.37365,-0.27179 -2.78749,-0.0353 -4.1781,-0.13247 -10.29318,-0.034 -20.57675,-0.65998 -30.86682,-0.74839 -0.28072,0.0637 -1.45951,0.122 -0.78515,0.38672 -3.82801,0.29764 -7.35982,1.98495 -11.17429,2.28817 -3.92548,0.49595 -7.9377,0.39286 -11.86868,0.7216 -0.45533,0.24021 0.003,0.67296 0.37304,0.60156 7.13499,0.37993 14.40444,1.30369 21.46055,-0.28709 1.30092,-0.24533 2.54281,-0.86325 3.89688,-0.7051 1.15259,-0.11256 2.2666,-0.51684 3.43548,-0.57166 1.57989,-0.18269 3.20511,-0.11955 4.76764,-0.0162 0.58797,0.54318 1.47369,0.34429 2.20644,0.53315 1.29065,0.16839 2.58876,0.2697 3.88926,0.31841 -0.0522,-0.51859 1.19251,-0.13668 0.23829,-0.10937 -0.31853,0.29188 -0.39496,0.55835 -0.90616,0.36785 -0.60447,0.0438 -1.35552,-0.31611 -1.87119,0.054 -0.0863,0.48661 0.69057,0.51576 1.02539,0.65625 1.66796,0.59834 3.47815,0.4002 5.21574,0.55191 1.0187,0.0784 2.06309,0.079 3.03036,-0.29605 4.78678,0.50555 9.58885,1.16607 14.41245,1.01615 1.25716,-0.079 2.64863,-0.29865 3.59927,-1.18997 0.007,-0.57219 -0.80002,-0.20251 -1.1463,-0.22447 -3.38561,0.36915 -6.8161,0.44588 -10.20136,0.0311 7.14585,0.28791 14.25796,-0.64754 21.38813,-0.93517 1.0799,-0.0395 2.21041,-0.10449 3.25835,-0.0844 0.0648,0.51297 0.82543,0.29452 1.17383,0.17774 0.3869,-0.0203 0.32137,-0.67966 0.75,-0.46289 0.93177,-0.13788 1.88145,-0.002 2.73828,0.36523 0.3488,-0.14218 0.61974,-0.41958 1.06572,-0.35093 1.01781,-0.10351 2.07105,-0.17048 3.06905,-0.27602 0.58032,0.2131 -0.41771,0.18527 -0.6388,0.29639 -0.36129,0.11071 -1.13917,0.083 -0.96472,0.64111 0.60035,0.31558 1.32173,-0.11364 1.95973,-0.14311 1.33183,-0.24091 2.64529,-0.47726 3.8723,-0.9272 0.40808,-0.40914 -0.0767,-0.54795 0.85324,-0.54365 1.23613,-0.13241 2.47996,-0.18224 3.72294,-0.16338 0.28434,-0.54357 1.03,-0.1311 1.51757,-0.29883 0.57194,0.12854 1.14315,0.094 1.69727,-0.084 -0.0569,0.0832 -0.86707,0.12753 -0.57031,0.57032 0.63758,0.32423 1.43126,0.009 2.1248,0.0672 1.15511,-0.0574 2.31093,-0.0959 3.46699,-0.12773 -0.90793,0.9088 -1.60176,2.01239 -2.58118,2.85946 -3.05369,2.97406 -6.85122,5.01179 -10.20293,7.59547 -0.24631,0.29669 -0.092,0.59633 -0.63293,0.63318 -0.76111,0.26228 -1.55755,0.4511 -2.13494,1.05373 -0.49008,0.32821 -0.69342,0.9305 -0.55349,1.48511 -0.49236,0.42073 -1.19137,0.57919 -1.7512,0.92693 -3.70587,1.82208 -7.5583,3.32726 -11.53786,4.38752 -0.5915,0.19093 0.27224,0.6265 -0.42342,0.6557 -0.80949,0.34098 -1.65349,1.00424 -2.39884,1.23298 0.45039,-0.4124 -0.30186,-0.89077 -0.68946,-0.59375 -0.87461,0.26981 -1.78816,0.45439 -2.5957,0.90234 0.12789,0.58809 -0.74933,0.39203 -1.13305,0.62148 -0.5455,0.15113 -1.09257,0.30859 -1.61695,0.52305 0.35236,-0.54121 0.92319,-0.666 -0.0709,-0.62878 -0.98906,0.0671 -1.82115,0.71596 -2.71503,1.09307 -0.53272,0.30292 -1.22228,0.5911 -1.79223,0.20759 -0.95242,1.19544 -2.5889,1.17092 -3.91638,1.66302 -0.982,0.26847 -2.25386,0.52572 -2.69907,1.5522 -0.0239,0.59477 -0.66144,0.0192 -1.00369,0.0875 -0.5953,0.0125 0.0465,0.70964 -0.4336,0.80469 -1.46947,0.73537 -3.15711,0.82916 -4.75374,1.12457 -1.18853,0.13606 -2.36811,0.45858 -3.55485,0.19574 -1.80602,-0.1409 -3.4402,0.96099 -5.25026,0.75846 -1.09152,0.0114 -2.13151,-0.34391 -3.17748,-0.56705 -5.53544,-0.20351 -11.07316,-0.46863 -16.60547,-0.77735 -0.27357,0.4319 -0.91476,0.15135 -1.34489,0.25537 -5.06432,-0.0567 -10.10266,-0.6468 -15.14078,-1.10982 -10.19359,-1.13402 -20.4075,-3.22219 -29.83685,-7.35368 -4.27952,-1.92233 -8.35288,-4.36958 -11.86107,-7.50085 0.009,-0.49842 -0.0608,-0.9929 -0.12109,-1.48633 0.1712,0.21012 0.52031,0.4029 0.67675,-0.0594 0.53499,-1.12723 1.34007,-2.21258 1.40918,-3.49532 -0.11135,-0.47987 0.28931,-0.86047 0.19834,-1.36538 0.24239,-0.47769 -0.59898,-0.98013 -0.75107,-0.41587 -0.36863,0.4402 -0.58951,1.18822 0,1.55078 0.14054,0.25932 -0.23834,0.72909 -0.49023,0.89063 -0.71561,0.68808 -1.15151,1.64233 -1.47461,2.55859 0.17889,0.26206 0.0676,0.42042 -0.0801,0.69141 -0.1151,0.55685 -0.36876,0.25929 -0.62517,-0.053 -2.09002,-2.00058 -3.54441,-4.57199 -5.7449,-6.46444 -0.82137,-0.78771 -1.62396,-1.5981 -2.37017,-2.45915 0.16286,2.19143 1.72996,3.8544 3.05881,5.46224 1.55697,2.00192 2.91935,4.19575 4.32791,6.26823 -0.23439,0.28747 -0.36499,1.11546 0.22852,0.94726 0.27738,-0.44776 0.4527,-0.11573 0.67187,0.20703 0.66314,0.78321 1.23656,1.70307 2.21875,2.12696 -0.28081,-0.80653 -0.17047,-0.78708 0.373,-0.19732 0.74627,0.76675 1.66738,1.38827 2.5196,1.97601 0.30039,0.62999 0.46352,1.53108 1.31834,1.57873 1.42536,0.51131 2.76147,1.2694 4.08984,2.01367 0.0377,-0.26321 -0.45338,-1.11447 -0.16796,-1.00391 1.63918,0.68986 3.18311,1.59914 4.7189,2.51092 0.34984,0.16981 0.54471,-0.25236 0.24594,-0.4699 1.81935,0.67938 3.7211,1.1462 5.48047,1.98437 -0.33104,0.10456 -0.50827,0.59409 -0.006,0.53516 1.23832,-0.10522 2.59865,0.0955 3.51261,1.00601 0.89361,0.51597 1.98213,0.46161 2.93546,0.83367 0.67711,0.17836 1.3549,0.35486 2.02068,0.57243 -0.27767,0.058 -0.73049,0.511 -0.25977,0.63086 1.65335,0.50378 3.52237,1.01286 5.0586,1.44531 -0.99971,-0.0736 -0.0489,0.32982 0.36884,0.52923 0.66282,0.17791 -0.2712,0.10292 -0.51923,0.14655 -1.4075,0.0447 -2.78353,0.41431 -4.18237,0.48355 -1.78263,-0.0771 -3.45277,-0.86237 -5.24146,-0.90542 0.15687,0.81765 1.057,0.87584 1.70508,1.03711 -4.55243,-0.10231 -9.03908,0.78701 -13.55903,1.15438 -0.29395,-0.0851 -1.30733,0.27233 -1.17423,-0.082 0.17607,-0.39019 -0.29107,-0.5898 -0.57143,-0.31454 -2.08822,0.64298 -4.31586,0.46148 -6.47262,0.54219 -5.29138,0.0108 -10.58555,-0.20736 -15.86317,-0.54477 -2.45037,-0.43365 -4.91349,-0.79981 -7.39468,-1.00133 -0.33581,-2.16851 -1.70169,-4.13489 -1.37666,-6.38078 0.0747,-1.86419 0.6867,-3.69216 0.68916,-5.54695 -0.0523,-0.47933 -0.57184,0.0442 -0.50556,-0.092 0.0425,-0.83953 0.15332,-1.69338 -0.0237,-2.52519 0.26865,-0.36893 0.98902,-0.80422 0.59571,-1.35351 -0.35986,-1.07928 -0.42939,-2.22575 -0.41602,-3.35547 -0.41091,0.1336 -0.88825,0.82134 -0.78956,-0.0166 -0.13306,-1.15278 0.0441,-2.31604 0.188,-3.45024 -0.0856,-0.58697 -0.65452,0.26774 -0.51784,-0.30108 -0.0663,-1.22936 -0.32458,-2.49838 -0.11302,-3.70868 0.24847,0.36058 0.69913,0.0376 0.45631,-0.31546 -0.44401,-0.80144 -0.64994,-1.86164 -0.0188,-2.63181 -0.0149,-1.14797 -0.10258,-2.29899 -0.006,-3.44531 0.16643,0.33929 0.76431,0.33176 0.62891,-0.13672 0.0917,-1.76086 0.41324,-3.5292 0.33398,-5.28711 -0.47924,-0.78084 -0.74416,-1.67687 -0.85547,-2.58203 0.59236,-0.57382 -0.36097,-1.22604 -0.1839,-1.88509 -0.001,-0.7696 0.39603,-1.58608 -0.0573,-2.29344 -0.32629,-1.30647 -0.12072,-2.6884 -0.12617,-4.02454 0.1953,-3.85422 0.62809,-7.70199 0.50608,-11.56646 0.10349,-2.63506 0.77404,-5.22804 0.83789,-7.86719 -0.36172,-0.11547 -0.2345,-0.34503 -0.19531,-0.73438 0.31943,-3.38794 0.27607,-6.90051 1.46497,-10.11612 0.41504,-0.81046 0.52944,-1.74056 0.43933,-2.63974 -0.40679,0.33416 -0.53556,0.55786 -0.48995,-0.11978 -0.11586,-1.33073 -0.6427,-2.71256 -0.0453,-4.00469 0.16334,-0.52283 0.32061,-1.05144 0.34966,-1.60209 -0.28442,-0.1045 -0.64475,-0.0135 -0.74414,0.29883 0.0147,-3.003552 -0.64675,-5.95355 -0.84766,-8.941405 0.3122,0.336007 0.59854,-0.145139 0.36873,-0.434488 -0.63585,-2.120015 -0.45721,-4.38695 -0.48155,-6.577999 0.0667,-2.774681 0.0127,-5.565726 0.322,-8.325776 0.58445,-3.263585 0.56795,-6.60086 0.36309,-9.900019 3.39245,-1.216665 6.84866,-2.214582 10.3418,-3.111328 -0.0536,0.853826 -0.19493,1.734147 0.14062,2.554688 0.27564,-0.130601 0.52601,-1.374091 0.49101,-0.709951 -0.0299,0.520851 0.12384,1.083285 0.30587,1.522451 -0.13946,0.771654 -0.12989,1.569792 -0.2316,2.352245 -0.0721,0.716431 0.24344,1.368792 0.17797,2.085251 0.0257,0.863594 0.34503,1.718994 0.40733,2.550835 -0.32893,0.928945 -0.12627,1.918243 -0.21745,2.883925 -0.0769,0.817245 0.21575,1.607392 0.26796,2.397926 -0.1049,4.058482 -0.0908,8.121779 -0.29658,12.178372 -0.18726,4.378427 -0.45776,8.752773 -0.7131,13.127613 0.49755,0.52375 0.22627,1.30469 0.41896,1.95604 0.39942,2.33976 1.09394,4.64206 1.09505,7.03613 0.12129,2.51359 -0.0664,5.03857 0.0407,7.5469 0.12588,0.4809 0.6614,0.18941 0.61523,-0.2168 0.63963,-5.30147 1.63151,-10.71727 0.61328,-16.03711 -0.25506,-0.85139 -0.42872,-1.734 -0.34732,-2.62508 -0.41823,-1.77632 -0.47562,-3.62216 -0.2933,-5.433513 -0.13066,-0.249322 0.39625,-0.611292 0.27929,-0.978515 0.047,-0.764219 0.18474,-1.529816 0.22461,-2.298829 0.29628,0.517913 0.64961,-0.222211 0.6836,-0.541015 0.42767,-1.826138 0.3223,-3.721538 0.3125,-5.582031 0.004,-0.425425 -0.39166,-0.704988 -0.1875,-1.144532 0.20886,-2.715624 0.38282,-5.447264 0.38196,-8.174985 -0.0643,-1.317965 0.0245,-2.688496 -0.3575,-3.962422 -0.16486,-0.589475 -0.86577,-0.879752 -0.71686,-1.553051 -0.19582,-2.847878 -0.32045,-5.718506 -0.28612,-8.563448 0.37968,-0.38119 0.0327,-0.978477 -0.15806,-1.345799 -0.0596,-1.077341 0.28164,-2.124497 0.34361,-3.195217 -0.1211,0.152344 -0.24219,0.304688 -0.36328,0.457032 z m 21.93164,6.755859 c 0.0955,0.158607 -0.12374,-0.04191 0,0 z M 388.0957,78.066406 c -0.32854,0.960218 -0.20436,2.039364 0.041,3.011719 0.698,-0.920674 0.83927,-2.233407 0.17263,-3.211281 -0.13947,-0.448951 -0.12131,0.11227 -0.21365,0.199562 z m 0.26563,3.767578 c -0.5655,0.590642 -1.21632,1.61642 -0.62891,2.400391 0.27682,-0.168877 0.80845,-0.01207 0.77539,-0.492187 -0.0616,-0.56636 -0.005,-1.125048 0.13301,-1.683273 0.0178,-0.503026 0.25385,-0.915192 -0.27949,-0.224931 z m -9.88477,4.21875 c -0.002,0.0065 -0.004,-0.0027 0,0 z m 0.10156,4.183594 c 0.0122,0.312266 -0.40495,0.159671 0,0 z m -17.88085,6.150391 c 0.0571,0.58217 -0.10432,-0.109816 0,0 z m 27.70898,0.77539 c 0.0452,-0.0037 -0.14898,0.96975 -0.0996,0.5625 0.0935,-0.137895 -0.0629,-0.560256 0.0996,-0.5625 z m -27.61133,23.138671 c -0.34468,0.05 -0.51968,0.47273 -0.71094,0.73633 -0.10889,0.60979 0.075,1.24657 -0.0971,1.86629 -0.0301,0.31143 -0.0772,1.38261 0.15135,1.09035 0.73826,-0.94087 0.99505,-2.18308 0.94961,-3.35313 -0.0319,-0.14809 -0.12398,-0.33898 -0.29297,-0.33984 z m 16.8418,2.1836 c -0.76562,0.0416 -0.63095,1.0305 -0.85742,1.55273 0.0269,0.40106 0.07,1.09298 0.5664,1.15039 0.68895,-0.34486 0.41886,-1.27763 0.55274,-1.90234 -0.035,-0.23335 0.0462,-0.85026 -0.26172,-0.80078 z m 10.16016,0.88085 c -0.23873,-0.0955 -0.17613,-0.26425 0,0 z m -10.40821,2.125 c -0.46781,0.26904 -0.38067,0.90929 -0.5332,1.36133 -0.16011,0.0449 -0.5405,0.68941 -0.68858,1.03969 -0.35322,1.02862 -0.70045,2.05867 -0.95595,3.11461 -0.0491,0.57739 0.26365,0.47206 0.60547,0.54102 0.49938,0.26143 0.56004,-0.59587 0.72549,-0.91306 0.51041,-1.55767 1.00741,-3.17014 1.14906,-4.79538 -0.028,-0.12345 -0.11155,-0.49625 -0.30229,-0.34821 z m -17.10547,1.5586 c -0.43195,-0.14093 -0.55485,0.2539 -0.54248,0.60642 -0.23148,0.97567 -0.28928,2.07997 0.15967,2.96389 0.5443,0.10839 0.54725,-0.73972 0.5293,-1.12305 0.0441,-0.82414 0.0358,-1.64966 0.0449,-2.47461 l -0.099,0.0142 z m 14.95313,5.07226 c -0.46755,0.89608 -0.54754,1.94694 -0.94123,2.88211 -0.27998,0.97093 -0.75162,1.92171 -0.89666,2.91282 0.10415,0.56526 0.69992,0.13223 0.80468,-0.20899 0.53436,-1.24664 1.26462,-2.46947 1.47698,-3.81719 0.0257,-0.72243 -0.004,-1.45292 -0.24455,-2.14179 -0.0664,0.12435 -0.13282,0.24869 -0.19922,0.37304 z m 13.79883,2.4668 c 0.27285,1.20978 0.42338,2.4698 0.22265,3.70313 0.0316,-1.46451 -0.16127,-2.92131 -0.39453,-4.36329 0.0573,0.22006 0.11458,0.44011 0.17188,0.66016 z m -0.70118,6.64649 c -0.18886,0.36298 -0.22605,-0.39108 0,0 z m 41.90821,0.65624 c -0.72605,0.0117 -0.59739,0.93883 -0.81055,1.41407 -0.0649,0.4517 0.074,1.06835 0.48633,1.30469 0.70975,-0.10497 0.53092,-1.03879 0.59908,-1.55304 0.005,-0.34095 0.0866,-1.0953 -0.27486,-1.16572 z m -0.14258,3.02344 c -0.47976,0.29729 -0.36547,0.97289 -0.51953,1.45117 -0.0764,-0.23859 -0.48966,0.61478 -0.62696,0.88282 -0.3548,1.02879 -0.62482,2.09034 -0.88752,3.13673 -0.04,0.29551 0.0868,0.93592 0.4637,0.58397 0.26833,0.22617 0.63673,0.14266 0.67407,-0.27779 0.57787,-1.73275 1.01252,-3.5266 1.22827,-5.33744 -0.0513,-0.13162 -0.0959,-0.58287 -0.33203,-0.43946 z m -1.95899,6.75977 c -0.44937,0.83491 -0.43247,1.84024 -0.76592,2.72783 -0.23681,1.06117 -0.71057,2.10378 -0.79267,3.17842 0.13311,0.56095 0.70327,0.095 0.78125,-0.25391 0.47789,-1.2475 1.08229,-2.48599 1.2982,-3.80693 -0.0135,-0.74624 -0.0633,-1.49977 -0.32945,-2.20479 -0.0638,0.11979 -0.1276,0.23959 -0.19141,0.35938 z m 101.7754,4.99609 c 0.29083,0.3088 -0.28213,1.1302 -0.14649,0.47852 0.0318,-0.0442 0.0918,-0.63923 0.14649,-0.47852 z m -120.23829,0.041 c -0.45083,0.005 -0.16537,0.57428 -0.27944,0.61243 -0.32981,0.0736 0.21135,0.58454 0.48257,0.57507 2.42123,0.44036 4.86806,1.04199 7.32812,1.05468 0.44848,-0.19421 0.0674,-0.66307 -0.30273,-0.61718 -0.59747,-0.0896 -1.2365,-0.13116 -1.80469,-0.25977 0.11803,-0.56847 -0.76842,-0.5332 -1.11914,-0.64648 -1.4294,-0.25651 -2.84476,-0.73002 -4.30469,-0.71875 z m 118.70313,0.24609 c -0.0492,0.20231 -0.0201,-0.11462 0,0 z m -15.31445,0.35938 c 0.33964,0.27255 -0.66394,0.10945 0,0 z m -93.53321,0.59765 c -0.41416,0.1823 -1.07774,0.0839 -1.29297,0.55469 -0.008,0.62627 0.84551,0.4445 1.27139,0.55687 0.70719,0.0592 1.42,0.0215 2.11924,-0.092 0.31416,-0.46604 -0.22481,-0.83793 -0.66211,-0.79492 -0.47758,-0.0711 -0.95278,-0.18896 -1.43555,-0.22461 z m 52.37891,0.51563 c -0.10082,0.21193 -0.0109,-0.12042 0,0 z m -9.38281,0.58203 c 0.007,0.0972 -0.12084,-0.0198 0,0 z m -192.35352,11.34766 c -0.47384,0.003 -1.17104,-0.0157 -1.2539,0.60546 0.44325,0.15909 0.84265,0.59752 1.34911,0.28493 0.5944,-0.0828 1.21222,0.005 1.78565,-0.22243 -0.51992,-0.51083 -1.19238,-0.58675 -1.88086,-0.66796 z m 224.50586,6.00195 c -0.82165,0.0524 -1.49109,0.65053 -2.27344,0.8789 -0.63174,0.33329 -1.41711,0.51158 -1.91797,1.02149 -0.0822,0.55173 0.73079,0.27612 1.02735,0.20703 0.65793,-0.2735 1.25367,-0.70299 1.95343,-0.90614 0.65753,-0.2257 1.22392,-0.65628 1.60321,-1.24034 -0.13086,0.013 -0.26172,0.026 -0.39258,0.0391 z M 255,176.64453 c -0.0799,0.0581 0.01,-0.0377 0,0 z m -1.70703,0.56836 c -0.0519,0.18705 -0.23823,-0.18108 0,0 z m 194.93359,6.57422 c -0.6811,0.14471 -1.39016,0.23263 -1.99804,0.60351 1.49248,0.54391 3.10241,0.27955 4.65234,0.29883 0.49375,0.0244 0.80573,-0.61679 0.12132,-0.59975 -0.89742,-0.26502 -1.8453,-0.30757 -2.77562,-0.30259 z m 10.94336,0.0937 c -1.15402,0.31745 -2.36402,-0.0704 -3.52734,0.22266 0.86775,0.69085 2.00209,0.73094 3.0413,0.9037 0.6355,-0.019 1.3118,0.15952 1.90596,-0.15566 0.1351,-0.47154 -0.38428,-0.69815 -0.76562,-0.72461 -0.0268,-0.21646 -0.47002,-0.23195 -0.6543,-0.24609 z m -189.125,2.64258 c -0.12576,0.16291 0.0114,-0.14031 0,0 z m 5.125,0.24218 c 0.0156,0.0306 -0.13962,-0.002 0,0 z m -4.14648,0.27344 c 0.0191,0.30195 -0.28719,-0.0884 0,0 z m 94.53515,1.71094 c -0.30941,0.36403 -0.30009,-0.36477 0,0 z m -71.99609,3.50977 c -0.16633,0.097 -0.0763,-0.1857 0,0 z m 150.32227,1.88867 c -0.55341,-0.0919 -0.58718,0.79705 -0.0391,0.78125 0.53601,0.10955 1.02115,0.54437 1.60363,0.31109 1.13718,-0.0889 2.2822,0.2035 3.41395,-0.0494 -0.97501,-0.73792 -2.22352,-0.77751 -3.37351,-0.98983 -0.53446,-0.0312 -1.06929,-0.0665 -1.605,-0.0531 z m 12.16406,0.45898 c -0.88373,0.0467 -1.80307,-0.0749 -2.62305,0.34961 1.24533,0.56826 2.6609,0.62748 4.00487,0.54985 0.52057,-0.1347 1.17751,-0.11808 1.58497,-0.46391 0.0882,-0.56474 -0.76205,-0.39542 -1.10351,-0.43555 -0.6211,-0.007 -1.2422,-0.0108 -1.86328,0 z m -52.84571,0.26953 c 0.28041,0.14312 0.0761,0.36524 -0.004,0.12305 -0.16313,0.34608 -0.27883,-0.30511 0.004,-0.12305 z m 3.9043,0.66211 c -1.06186,0.47225 -2.51431,0.052 -3.58984,0.66797 -0.30406,0.52162 0.53162,0.50422 0.84736,0.42742 1.40586,-0.22541 2.86103,-0.12124 4.23272,-0.54461 0.0792,-0.64053 -0.7999,-0.48479 -1.20375,-0.53347 -0.0972,7.1e-4 -0.1917,-0.009 -0.28649,-0.0173 z m -168.02539,4.6211 c -0.80125,0.11373 -1.71631,0.0397 -2.48437,0.28906 -0.30771,0.3379 -0.91515,0.31858 -1.06836,0.83398 0.79704,0.6215 1.80004,-0.003 2.67191,-0.0801 0.41996,-0.081 0.83381,-0.20519 1.20699,-0.41796 -0.124,-0.19905 -0.005,-0.61552 -0.32617,-0.625 z M 231,201.27148 c -1.5479,0.1201 -3.12245,0.041 -4.65039,0.33399 -0.76268,-0.045 -0.30147,0.85328 -0.24182,1.12524 2.55399,0.0461 5.10605,-0.25322 7.63509,-0.57301 0.35148,-0.0835 1.15947,-0.0788 0.95439,-0.61278 -0.56497,-0.31842 -1.28236,0.0746 -1.89046,0.0324 -0.60878,0.24075 -0.5532,-0.13866 -0.97869,-0.30579 -0.27524,-0.035 -0.55196,-0.003 -0.82812,0 z m -7.41211,0.80664 c -2.63399,0.39133 -5.3446,0.35043 -7.99446,0.69588 -0.42028,-7.3e-4 -0.49781,0.56454 -0.0407,0.60491 1.54722,0.2056 3.13183,0.0693 4.69219,0.0657 0.93721,0.006 1.85178,-0.0973 2.73898,-0.40441 0.68273,-0.14391 1.31081,-0.45679 1.88524,-0.84679 -0.42487,-0.0674 -0.84822,-0.16798 -1.28125,-0.11524 z"
       transform="matrix(0.76381745,0,0,0.76381745,-149.63835,-35.134236)" />
  </g>
</svg>
